<?xml version="1.0" standalone="no"?>
<!DOCTYPE svg PUBLIC "-//W3C//DTD SVG 20010904//EN"
 "http://www.w3.org/TR/2001/REC-SVG-20010904/DTD/svg10.dtd">
<svg version="1.0" xmlns="http://www.w3.org/2000/svg"
 width="1280.000000pt" height="1280.000000pt" viewBox="0 0 1280.000000 1280.000000"
 preserveAspectRatio="xMidYMid meet">
<metadata>
Created by potrace 1.11, written by Peter Selinger 2001-2013
</metadata>
<g transform="translate(0.000000,1280.000000) scale(0.100000,-0.100000)"
fill="#000000" stroke="none">
<path d="M8384 11134 c-4 -38 -2 -503 5 -1034 7 -531 15 -1257 18 -1614 l6
-649 526 7 c802 10 1560 42 1994 82 l68 7 -8 256 c-11 347 -8 1211 6 1561 15
378 26 1225 17 1321 l-7 76 -437 6 c-240 4 -642 14 -892 22 -250 8 -642 18
-872 21 l-416 7 -8 -69z m2042 -129 c41 -17 38 -30 -7 -39 -46 -9 -207 -87
-276 -134 -173 -118 -305 -335 -329 -542 -4 -40 -10 -57 -15 -48 -14 21 -10
116 6 154 13 32 13 37 -5 67 -39 63 -13 145 54 167 32 10 34 13 26 36 -15 38
-12 92 7 131 33 71 151 118 236 96 36 -10 39 -9 48 16 14 35 57 80 94 97 40
18 117 17 161 -1z m-983 -161 c17 -9 53 -36 79 -60 26 -24 54 -44 63 -44 9 0
30 -7 48 -16 74 -38 129 -116 126 -182 -1 -20 3 -50 10 -65 13 -33 15 -141 2
-133 -4 3 -11 23 -15 44 -3 22 -24 75 -46 119 -65 130 -194 255 -337 327 -29
14 -53 29 -53 33 0 10 89 -6 123 -23z m-245 -118 c26 -13 37 -14 54 -5 13 7
49 10 94 7 95 -6 168 -45 202 -109 16 -31 32 -46 51 -52 43 -11 88 -68 96
-121 4 -25 16 -53 27 -63 27 -24 54 -80 62 -128 6 -40 6 -39 -27 21 -95 174
-233 300 -397 364 -113 43 -160 52 -310 59 l-135 7 45 22 c38 19 57 22 125 19
50 -2 92 -10 113 -21z m1292 -56 c20 -5 44 -16 53 -23 15 -10 1 -13 -85 -14
-272 -5 -484 -128 -608 -355 -16 -29 -30 -45 -30 -35 0 26 28 88 50 112 10 11
23 40 29 65 10 46 57 100 85 100 8 0 26 20 40 44 18 31 40 51 73 67 52 25 135
36 172 22 16 -7 39 -4 75 9 58 20 96 22 146 8z m-1062 -216 c12 -8 22 -24 22
-35 0 -12 7 -19 19 -19 46 0 68 -65 34 -102 -23 -26 -77 -23 -104 5 -12 12
-19 17 -16 11 4 -6 -3 -28 -13 -50 -24 -46 -26 -127 -6 -166 l15 -28 -63 0
-63 0 -1 58 c0 52 -39 200 -41 160 -1 -19 -45 -25 -67 -10 -15 10 -34 47 -34
67 0 22 45 65 69 65 11 0 32 12 46 26 22 22 33 26 64 21 21 -2 45 -1 52 4 22
14 62 11 87 -7z m-543 -108 c19 -8 39 -23 46 -34 10 -15 20 -18 58 -14 40 4
50 1 74 -23 28 -29 34 -54 18 -83 -8 -15 -4 -17 31 -17 110 0 121 -170 12
-191 -31 -6 -31 -5 -30 33 l1 38 -42 -3 c-39 -2 -42 0 -45 25 -2 14 -10 29
-18 31 -13 4 -13 3 -2 -11 11 -13 7 -28 -28 -97 -23 -45 -40 -92 -38 -103 4
-20 8 -18 45 21 22 23 51 63 64 87 25 47 43 56 53 29 4 -10 -11 -39 -40 -77
-56 -75 -68 -97 -89 -170 l-16 -57 -47 0 c-26 0 -63 -3 -83 -6 l-35 -6 -17 76
c-18 84 -63 186 -102 230 -26 28 -49 30 -26 2 11 -13 8 -16 -13 -22 -56 -14
-119 24 -117 69 2 39 2 48 -5 89 -5 31 -2 41 21 63 20 20 33 26 56 23 23 -4
29 -1 29 15 0 10 15 34 34 53 34 34 71 43 111 28 14 -6 14 -8 -2 -28 -16 -18
-14 -18 8 2 23 20 63 38 92 41 4 1 23 -5 42 -13z m1559 -38 c-6 -10 -4 -10 7
0 32 30 114 2 159 -56 12 -15 19 -21 15 -14 -8 16 27 16 43 0 7 -7 12 -19 12
-28 0 -8 9 -23 20 -33 12 -10 20 -29 20 -49 0 -26 -6 -37 -30 -50 -17 -9 -34
-28 -40 -42 -10 -26 -38 -46 -65 -46 -11 0 -15 5 -11 16 3 8 2 12 -4 9 -6 -3
-10 -14 -10 -24 0 -18 -54 -49 -74 -43 -5 2 -16 -4 -25 -11 -9 -8 -40 -17 -69
-20 -48 -6 -58 -3 -107 29 -55 34 -76 69 -59 96 5 7 7 37 5 66 -2 45 0 52 16
52 14 0 15 2 5 9 -12 7 -11 13 1 37 21 40 54 69 107 93 52 24 95 28 84 9z
m-537 -140 c14 -12 34 -40 45 -61 18 -37 58 -175 58 -204 0 -10 -22 -13 -96
-13 -61 0 -93 -4 -89 -10 3 -5 46 -10 96 -10 82 0 89 -2 89 -20 0 -17 -8 -20
-72 -23 l-73 -3 78 -2 77 -2 0 -134 c0 -73 -3 -154 -6 -180 l-7 -46 -56 -2
-56 -2 58 -3 58 -4 -7 -52 c-4 -29 -10 -72 -13 -97 l-6 -45 -70 -3 c-99 -4
-108 -22 -12 -22 l78 0 -7 -37 c-29 -160 -95 -346 -129 -359 -23 -9 -45 14
-77 81 l-28 60 55 3 c74 4 71 22 -4 22 -50 0 -59 3 -64 20 -4 17 0 20 36 22
l42 1 -42 4 c-42 4 -43 5 -58 56 -57 202 -89 470 -82 697 5 208 24 287 85 352
58 61 143 68 199 16z m-426 -224 c11 -9 19 -25 19 -36 0 -12 7 -18 24 -18 52
0 78 -94 34 -124 -12 -9 -29 -16 -38 -16 -8 1 0 7 18 15 27 12 32 19 32 49 0
40 -21 66 -56 66 -19 0 -24 5 -24 24 0 38 -48 64 -97 51 -23 -5 -24 -8 -10
-23 23 -26 29 -57 17 -88 -9 -22 -8 -30 1 -33 7 -2 22 -14 33 -26 12 -13 30
-25 41 -28 17 -4 17 -5 -4 -6 -14 -1 -31 9 -43 25 -15 18 -28 24 -44 21 -13
-2 -29 2 -35 9 -14 17 -24 18 -41 1 -7 -7 -26 -13 -43 -13 -24 1 -31 -4 -33
-22 -2 -12 -8 -20 -13 -16 -15 9 -41 -17 -34 -34 3 -8 -3 -16 -15 -19 -11 -3
-20 -8 -20 -12 0 -9 67 -92 87 -107 47 -35 43 -5 -8 80 -29 48 -38 71 -30 79
14 14 34 -4 56 -53 26 -57 30 -43 5 19 -25 64 -25 81 -1 81 18 0 28 -18 55
-100 2 -8 4 14 3 50 -2 52 1 65 13 65 9 0 17 -13 21 -35 l5 -35 14 28 c8 16
20 26 29 25 19 -4 18 -18 -4 -78 -14 -36 -16 -68 -12 -152 l5 -108 -63 0 -63
0 -22 54 c-12 30 -38 73 -57 96 -31 36 -39 40 -67 35 -26 -4 -28 -4 -8 5 12 5
22 12 22 15 0 4 -4 3 -10 0 -16 -10 -12 6 8 29 16 20 16 20 -2 6 -18 -14 -19
-13 -13 2 3 10 2 20 -3 23 -6 4 -10 22 -10 41 0 39 -20 45 -54 17 l-21 -18 20
23 c14 18 28 23 51 20 30 -3 30 -3 20 24 -15 40 18 83 64 83 23 0 42 9 61 28
29 28 57 34 90 17 15 -8 25 -7 42 5 26 19 81 14 108 -11z m1074 -129 c49 -8
111 -39 148 -73 32 -30 34 -39 10 -45 -10 -2 -8 -3 4 -2 30 3 53 -23 32 -36
-11 -7 -11 -9 4 -9 21 0 35 -34 46 -110 5 -30 9 -43 10 -27 1 34 14 35 29 2
21 -46 14 -82 -22 -122 -18 -21 -41 -52 -50 -70 -15 -31 -60 -53 -107 -53 -9
0 -31 -7 -48 -16 -28 -14 -37 -14 -59 -3 -15 7 -30 15 -34 17 -5 2 -8 -3 -8
-12 0 -12 -10 -16 -40 -16 -34 0 -40 3 -41 23 l-2 22 -4 -23 c-5 -28 -38 -26
-38 2 0 11 -7 21 -15 23 -13 4 -13 3 -1 -5 12 -8 8 -14 -21 -28 -45 -21 -81
-13 -116 25 -20 21 -39 30 -75 34 -80 8 -113 60 -83 130 8 21 12 51 9 75 -4
32 -1 43 18 61 37 34 44 26 45 -47 0 -44 6 -79 18 -102 21 -41 63 -88 91 -102
11 -5 3 4 -18 22 -104 88 -114 259 -21 368 44 52 85 74 121 67 22 -4 24 -3 8
4 -17 7 -15 10 20 20 72 20 99 21 190 6z m-1495 -157 c12 -10 18 -18 12 -18
-20 0 -52 53 -51 84 1 29 2 28 9 -8 4 -22 18 -48 30 -58z m-37 -71 c4 3 7 1 7
-6 0 -8 -7 -10 -20 -6 -13 4 -20 2 -20 -6 0 -7 -2 -10 -5 -7 -3 3 -3 13 1 22
4 12 10 14 19 6 6 -5 15 -7 18 -3z m-306 -214 c3 -9 -5 -66 -20 -127 -14 -61
-31 -160 -37 -221 -17 -171 -45 -247 -85 -231 -11 4 -15 21 -15 64 0 76 -24
218 -62 362 -38 143 -39 155 -13 155 14 0 24 -13 38 -50 19 -51 67 -312 67
-368 1 -70 19 5 50 203 18 113 34 211 36 218 5 18 34 15 41 -5z m398 -24 c0
-9 -13 -15 -33 -17 -43 -4 -57 -36 -73 -163 -20 -167 6 -312 59 -326 33 -8 49
14 57 82 10 77 5 89 -33 93 -25 3 -32 8 -30 20 3 14 15 17 58 17 l55 0 1 -95
c0 -113 -6 -134 -45 -155 -64 -33 -127 -10 -157 57 -16 37 -19 66 -19 218 0
167 1 177 25 225 20 39 33 52 60 61 39 13 75 4 75 -17z m-236 10 c21 -8 31
-17 29 -28 -3 -12 -14 -15 -46 -13 l-42 2 0 -84 0 -85 33 -3 c24 -2 32 -8 32
-23 0 -15 -8 -21 -32 -23 l-33 -3 0 -135 0 -134 44 0 c48 0 60 -8 47 -29 -11
-18 -93 -26 -120 -12 -21 12 -21 16 -21 290 0 153 3 281 7 284 10 11 67 8 102
-4z m485 -8 c8 -7 12 -19 9 -28 -5 -11 -15 -14 -44 -9 -39 6 -39 6 -39 -26 0
-18 -3 -56 -6 -85 l-7 -52 39 -3 c31 -2 39 -7 39 -23 0 -15 -8 -21 -35 -25
l-35 -5 -3 -132 -3 -133 50 0 c44 0 51 -3 51 -19 0 -16 -10 -21 -46 -27 -26
-4 -55 -2 -68 4 -21 9 -23 19 -29 104 -7 111 0 455 9 470 9 13 99 5 118 -11z
m270 -217 c26 -10 18 -31 -15 -43 -41 -14 -146 -14 -155 0 -10 17 12 32 58 40
59 9 93 10 112 3z m548 -24 c38 -11 107 -78 110 -108 14 -146 13 -194 -2 -229
-17 -40 -9 -51 22 -27 17 13 24 28 24 52 0 45 44 86 84 79 23 -5 29 -1 44 34
35 80 142 93 213 27 21 -19 24 -20 40 -6 32 28 78 31 127 10 36 -16 66 -45 66
-64 0 -2 -55 -4 -123 -5 -196 -2 -346 -52 -461 -155 -84 -75 -85 -77 -23 -141
28 -29 68 -80 87 -113 32 -54 35 -64 35 -140 0 -98 -15 -126 -89 -163 -47 -24
-49 -24 -164 -11 -164 17 -184 11 -401 -125 -119 -75 -181 -105 -210 -105 -9
1 0 7 21 14 99 35 184 111 235 208 24 46 28 65 28 138 0 71 -5 96 -28 150 -15
36 -31 88 -34 116 -19 172 179 237 389 127 29 -15 57 -30 62 -32 5 -2 -2 16
-15 39 -30 54 -105 114 -170 137 -27 10 -49 21 -49 25 0 17 48 38 86 38 53 0
113 -43 142 -101 l22 -44 0 60 c0 103 -38 208 -100 278 -40 46 -32 54 32 37z
m495 -315 c21 -9 44 -22 53 -29 8 -7 38 -19 67 -26 49 -11 135 -70 123 -84 -3
-3 -41 6 -83 19 -196 63 -368 55 -519 -21 -26 -13 -51 -24 -54 -24 -15 0 43
53 77 71 20 10 39 25 43 34 8 21 72 47 97 40 12 -4 29 2 45 14 32 25 98 28
151 6z m-1642 -169 c49 -21 70 -66 69 -151 0 -43 -6 -81 -15 -99 -14 -26 -14
-31 3 -64 22 -44 24 -148 4 -196 -7 -18 -26 -42 -41 -54 -34 -27 -91 -30 -97
-4 -2 9 0 118 4 242 4 124 4 245 1 269 -5 36 -2 47 13 58 22 16 18 16 59 -1z
m-459 -6 c50 0 66 -4 71 -16 8 -21 -16 -36 -44 -29 -29 7 -29 10 -7 -283 18
-227 16 -252 -19 -239 -10 4 -16 52 -25 209 -7 111 -12 229 -12 261 0 56 0 57
-29 57 -35 0 -62 27 -40 41 8 5 20 7 27 4 8 -3 43 -5 78 -5z m271 -15 c14
-155 37 -360 49 -437 19 -127 18 -128 -10 -128 -26 0 -36 21 -36 81 0 45 -18
61 -62 57 -32 -3 -33 -5 -43 -62 -11 -62 -34 -91 -56 -69 -8 8 -5 39 15 120
26 109 59 299 71 406 7 58 7 58 38 55 24 -2 32 -8 34 -23z m821 -4 c3 -19 0
-23 -16 -19 -33 9 -45 -8 -50 -69 -4 -54 0 -65 43 -147 59 -112 70 -185 37
-260 -25 -55 -76 -85 -113 -66 -28 16 -19 34 22 40 42 6 62 42 63 116 0 43 -8
69 -46 145 -67 135 -74 203 -27 264 28 35 82 33 87 -4z m-449 -238 c-2 -142 0
-264 4 -270 5 -7 25 -13 46 -13 42 0 72 -22 49 -36 -7 -5 -41 -8 -76 -9 -68 0
-90 15 -78 53 3 9 6 125 7 257 1 132 6 248 11 258 5 9 16 17 24 17 14 0 16
-28 13 -257z m278 234 c24 -24 6 -40 -38 -33 l-39 6 0 -85 c0 -81 1 -85 23
-85 31 0 51 -15 44 -34 -4 -10 -18 -16 -37 -16 l-30 0 0 -135 0 -135 44 0 c50
0 68 -16 41 -37 -23 -16 -107 -17 -123 -1 -13 13 -18 531 -5 563 5 14 15 16
55 13 27 -3 56 -12 65 -21z"/>
<path d="M9318 10304 c5 -26 22 -33 22 -9 0 7 8 18 18 24 14 8 11 10 -14 9
-27 -1 -30 -4 -26 -24z"/>
<path d="M9261 10269 c4 -26 13 -58 21 -71 l13 -23 3 24 c7 46 -8 109 -27 114
-16 4 -17 -1 -10 -44z"/>
<path d="M8721 10274 c0 -11 3 -14 6 -6 3 7 2 16 -1 19 -3 4 -6 -2 -5 -13z"/>
<path d="M8721 10234 c0 -11 3 -14 6 -6 3 7 2 16 -1 19 -3 4 -6 -2 -5 -13z"/>
<path d="M8760 10163 c-24 -2 -44 -14 -62 -35 l-27 -31 31 -35 c17 -20 39 -54
50 -76 l19 -41 -7 35 c-6 33 -29 83 -57 123 -10 15 -9 21 7 33 29 21 40 17 53
-16 15 -40 33 -38 33 4 0 24 5 36 18 39 14 4 13 5 -3 4 -11 0 -36 -2 -55 -4z"/>
<path d="M8841 10079 l1 -84 13 62 c7 34 19 72 25 85 10 19 10 21 -1 11 -9 -9
-16 -10 -26 -2 -11 9 -13 -4 -12 -72z"/>
<path d="M8923 10149 c17 -14 17 -16 -1 -69 -11 -30 -22 -73 -25 -95 l-7 -40
14 36 c7 19 23 54 35 77 19 37 20 46 9 69 -7 15 -20 28 -28 31 -11 3 -10 0 3
-9z"/>
<path d="M9091 10114 c0 -11 3 -14 6 -6 3 7 2 16 -1 19 -3 4 -6 -2 -5 -13z"/>
<path d="M8629 10083 c-13 -17 -13 -17 6 -3 11 8 22 16 24 17 2 2 0 3 -6 3 -6
0 -17 -8 -24 -17z"/>
<path d="M8832 9970 c0 -14 2 -19 5 -12 2 6 2 18 0 25 -3 6 -5 1 -5 -13z"/>
<path d="M10420 10245 c-7 -9 -11 -17 -9 -20 3 -2 10 5 17 15 14 24 10 26 -8
5z"/>
<path d="M10641 10174 c0 -11 3 -14 6 -6 3 7 2 16 -1 19 -3 4 -6 -2 -5 -13z"/>
<path d="M9740 10050 c0 -5 20 -10 45 -10 25 0 45 5 45 10 0 6 -20 10 -45 10
-25 0 -45 -4 -45 -10z"/>
<path d="M9720 9700 c0 -6 33 -10 80 -10 47 0 80 4 80 10 0 6 -33 10 -80 10
-47 0 -80 -4 -80 -10z"/>
<path d="M9660 9610 c0 -6 29 -10 66 -10 41 0 63 4 59 10 -3 6 -33 10 -66 10
-33 0 -59 -4 -59 -10z"/>
<path d="M9767 9563 c18 -2 50 -2 70 0 21 2 7 4 -32 4 -38 0 -55 -2 -38 -4z"/>
<path d="M9823 9383 c26 -2 68 -2 95 0 26 2 4 3 -48 3 -52 0 -74 -1 -47 -3z"/>
<path d="M9740 9200 c0 -5 18 -10 39 -10 22 0 43 5 46 10 4 6 -12 10 -39 10
-25 0 -46 -4 -46 -10z"/>
<path d="M9805 9160 c3 -5 24 -10 46 -10 21 0 39 5 39 10 0 6 -21 10 -46 10
-27 0 -43 -4 -39 -10z"/>
<path d="M9252 9934 c-12 -8 -22 -21 -22 -28 0 -8 -14 -12 -42 -12 -36 1 -44
-3 -57 -26 -13 -23 -14 -31 -4 -47 12 -19 8 -55 -6 -47 -3 2 -6 -10 -6 -27 0
-27 4 -31 32 -34 24 -3 31 -1 28 9 -8 19 71 91 93 86 10 -3 27 1 37 8 10 8 29
11 42 8 14 -4 23 -2 23 6 0 6 4 8 10 5 5 -3 8 0 6 7 -2 7 -7 29 -10 48 -5 27
-3 31 5 20 7 -10 9 -11 7 -2 -2 8 -7 13 -11 13 -4 -1 -20 5 -37 14 -37 19 -60
19 -88 -1z m-17 -64 c3 -5 1 -10 -4 -10 -6 0 -11 5 -11 10 0 6 2 10 4 10 3 0
8 -4 11 -10z m-42 -17 c-7 -2 -19 -2 -25 0 -7 3 -2 5 12 5 14 0 19 -2 13 -5z"/>
<path d="M9391 9874 c0 -11 3 -14 6 -6 3 7 2 16 -1 19 -3 4 -6 -2 -5 -13z"/>
<path d="M10378 9773 c6 -2 18 -2 25 0 6 3 1 5 -13 5 -14 0 -19 -2 -12 -5z"/>
<path d="M10482 9725 c23 -25 48 -45 57 -44 11 0 9 3 -5 9 -12 5 -34 25 -49
44 -15 20 -31 36 -36 36 -4 0 11 -20 33 -45z"/>
<path d="M10423 9704 c15 -8 27 -18 27 -22 0 -5 7 -17 15 -28 14 -17 14 -16 0
13 -14 30 -42 54 -62 53 -4 -1 4 -8 20 -16z"/>
<path d="M10648 9703 c6 -2 18 -2 25 0 6 3 1 5 -13 5 -14 0 -19 -2 -12 -5z"/>
<path d="M10578 9683 c7 -3 16 -2 19 1 4 3 -2 6 -13 5 -11 0 -14 -3 -6 -6z"/>
<path d="M10636 9639 c-14 -11 -31 -30 -37 -42 -6 -14 -2 -12 12 7 12 15 36
34 53 42 17 7 24 13 15 14 -9 0 -28 -9 -43 -21z"/>
<path d="M10550 9587 c0 -10 8 -17 18 -17 9 0 13 4 7 8 -5 4 -13 11 -17 16 -5
5 -8 2 -8 -7z"/>
<path d="M10500 9545 c-7 -9 -11 -17 -9 -20 3 -2 10 5 17 15 14 24 10 26 -8 5z"/>
<path d="M10481 9499 c-1 -9 -10 -24 -21 -34 -11 -10 -20 -22 -20 -27 0 -5 12
4 26 21 14 17 23 37 21 43 -4 9 -6 7 -6 -3z"/>
<path d="M10780 9431 c0 -6 -19 -33 -42 -59 -42 -47 -42 -47 -4 -12 41 38 61
68 52 78 -3 3 -6 0 -6 -7z"/>
<path d="M10431 9404 c0 -11 3 -14 6 -6 3 7 2 16 -1 19 -3 4 -6 -2 -5 -13z"/>
<path d="M10441 9369 c-1 -9 -8 -22 -16 -29 -8 -7 -14 -22 -14 -34 1 -20 2
-20 6 -1 3 11 12 28 20 37 8 9 13 23 10 30 -4 9 -6 8 -6 -3z"/>
<path d="M10310 9300 c8 -5 22 -9 30 -9 10 0 8 3 -5 9 -27 12 -43 12 -25 0z"/>
<path d="M9016 8574 c-3 -9 -6 -58 -6 -110 0 -78 2 -92 15 -88 20 8 28 37 28
109 0 88 -20 135 -37 89z"/>
<path d="M9010 8207 c0 -69 4 -117 10 -117 45 0 55 169 12 212 l-22 22 0 -117z"/>
<path d="M8807 8480 c-10 -24 -46 -254 -41 -262 3 -5 20 -8 37 -8 l32 0 -7
128 c-4 70 -9 134 -11 142 -4 13 -5 13 -10 0z"/>
<path d="M2715 10450 c-540 -8 -1347 -29 -1353 -34 -2 -2 2 -237 7 -522 6
-286 13 -863 17 -1283 l7 -764 671 6 c369 4 1093 10 1609 14 l937 6 0 51 c0
28 -7 164 -16 301 -17 269 -16 384 12 1455 7 305 14 601 14 656 l0 101 -122 7
c-217 11 -1257 14 -1783 6z m1655 -214 c0 -48 -29 -138 -53 -164 l-22 -23 -7
26 c-4 15 1 52 11 90 30 106 71 148 71 71z m-116 -89 c26 -67 33 -130 18 -155
-6 -8 -17 10 -34 55 -38 98 -41 111 -33 150 8 44 15 37 49 -50z m-1327 51 c5
-7 20 -112 32 -233 13 -121 30 -260 38 -308 15 -95 9 -119 -26 -110 -16 4 -21
18 -26 75 -4 38 -12 71 -19 74 -6 2 -29 5 -51 7 l-39 2 -11 -65 c-6 -36 -14
-71 -19 -78 -8 -14 -42 -16 -50 -3 -3 5 7 65 23 133 30 126 64 315 76 423 3
33 8 68 11 78 6 20 47 23 61 5z m468 -2 c22 -16 14 -48 -12 -45 -36 3 -42 -2
-53 -43 -16 -57 -6 -98 50 -204 56 -106 68 -163 50 -241 -20 -91 -100 -152
-143 -108 -23 22 -13 35 28 35 47 0 69 41 70 131 0 59 -5 75 -52 170 -58 116
-70 167 -53 229 20 74 72 108 115 76z m-1360 -21 c0 -16 -8 -21 -43 -23 -35
-3 -45 -8 -57 -33 -35 -68 -49 -394 -19 -467 17 -44 52 -65 89 -56 30 7 44
-18 24 -42 -17 -21 -91 -14 -127 13 -42 31 -55 84 -60 244 -7 230 18 335 89
372 46 24 104 19 104 -8z m188 3 c29 -11 37 -42 12 -52 -8 -3 -27 -1 -41 4
-14 6 -30 10 -35 10 -5 0 -9 -42 -9 -94 l0 -93 41 -7 c34 -6 40 -10 37 -29 -2
-18 -11 -23 -40 -25 l-38 -3 0 -150 0 -149 49 0 c53 0 70 -12 51 -35 -18 -21
-123 -20 -141 1 -10 12 -13 82 -12 317 1 279 3 302 19 314 19 14 55 11 107 -9z
m186 8 c36 -19 51 -55 51 -124 0 -40 -8 -73 -26 -111 l-25 -55 22 -100 c12
-56 32 -130 45 -165 29 -78 30 -91 3 -91 -28 0 -52 58 -84 210 -14 68 -27 126
-29 128 -12 12 -16 -92 -6 -198 10 -123 7 -146 -22 -135 -12 5 -16 44 -21 232
-9 287 -9 408 0 416 11 12 63 8 92 -7z m230 3 c59 -12 82 -33 60 -54 -11 -12
-22 -13 -49 -5 -18 5 -35 9 -36 7 -1 -1 -4 -42 -5 -92 l-3 -89 33 -7 c18 -4
38 -12 44 -18 16 -16 -10 -41 -44 -41 l-29 0 -2 -110 c-1 -60 -2 -127 -2 -147
l-1 -38 53 -3 c48 -3 53 -5 50 -25 -3 -20 -9 -22 -73 -22 l-70 0 -7 40 c-4 22
-7 159 -6 305 0 210 3 270 14 288 8 12 16 22 19 22 2 0 26 -5 54 -11z m477 2
c5 -6 6 -115 2 -287 -5 -179 -4 -283 3 -295 7 -15 21 -19 58 -19 35 0 51 -4
55 -16 11 -28 -2 -32 -86 -30 l-83 2 4 314 c4 327 9 368 47 331z m1334 -57
c-17 -43 -33 -61 -103 -114 -68 -52 -82 -50 -48 7 18 29 137 132 153 133 4 0
3 -12 -2 -26z m-231 -84 c30 -77 38 -130 25 -165 -5 -12 -14 -1 -31 41 -35 87
-45 130 -37 169 3 19 8 35 9 35 2 0 17 -36 34 -80z m195 -37 c-18 -35 -150
-150 -161 -139 -3 3 3 22 13 43 12 24 45 57 89 90 38 28 71 50 73 48 2 -2 -4
-21 -14 -42z m-220 -76 c26 -67 33 -130 17 -155 -5 -9 -19 17 -41 77 -25 70
-31 99 -25 127 8 45 15 38 49 -49z m195 -16 c-6 -15 -19 -38 -30 -50 -31 -33
-129 -104 -135 -98 -16 16 45 89 126 150 45 34 51 34 39 -2z m-225 -86 c26
-70 34 -149 17 -159 -5 -3 -14 6 -19 22 -49 131 -53 147 -47 184 9 49 15 42
49 -47z m193 -28 c-10 -23 -40 -54 -88 -90 -41 -31 -75 -54 -77 -52 -2 2 4 21
14 42 17 34 150 150 161 139 2 -2 -2 -20 -10 -39z m-222 -80 c14 -37 25 -86
25 -110 l0 -42 16 32 c9 18 50 58 91 89 63 47 74 52 68 32 -4 -12 -14 -33 -22
-46 -19 -30 -131 -117 -152 -117 -29 0 -87 164 -76 217 9 39 18 28 50 -55z
m-280 33 c9 -40 -4 -138 -23 -174 -14 -29 -15 -29 -29 -10 -27 35 4 214 36
214 5 0 12 -13 16 -30z m-86 -145 c24 -46 31 -73 29 -101 l-3 -39 -44 75 c-33
54 -45 88 -48 125 l-4 50 19 -24 c11 -14 34 -52 51 -86z m335 12 c26 -66 35
-150 17 -161 -5 -3 -23 33 -41 81 -24 67 -30 96 -24 126 7 47 13 42 48 -46z
m-154 28 c-8 -36 -45 -88 -104 -144 l-36 -35 0 26 c0 14 12 43 26 64 28 42
104 124 115 124 4 0 3 -16 -1 -35z m344 -60 c-15 -33 -152 -150 -162 -140 -2
2 4 21 14 42 18 35 150 150 161 139 3 -2 -3 -21 -13 -41z m-544 -78 c22 -43
40 -88 40 -100 0 -16 5 -12 19 18 23 50 131 158 131 131 0 -34 -31 -82 -90
-141 -33 -33 -60 -54 -60 -47 0 7 -4 11 -9 7 -11 -6 -78 108 -89 152 -10 35
-4 79 9 66 4 -4 27 -43 49 -86z m324 4 c15 -36 26 -85 26 -110 l0 -46 17 33
c14 29 152 147 161 138 6 -7 -21 -62 -41 -84 -32 -35 -114 -93 -135 -96 -17
-3 -29 20 -67 133 -15 43 -11 121 5 104 5 -4 20 -37 34 -72z m-345 -95 c35
-62 42 -82 39 -118 l-3 -43 -44 74 c-42 71 -67 161 -44 161 5 0 29 -33 52 -74z
m-859 30 c310 -54 517 -137 589 -237 58 -79 66 -123 65 -339 0 -107 -6 -247
-13 -310 -19 -185 -71 -504 -85 -518 -30 -30 -139 -34 -866 -28 -399 4 -744 9
-768 12 -29 4 -47 13 -56 28 -19 30 -35 166 -46 388 -6 106 -15 245 -21 308
-19 194 -17 376 5 439 21 60 71 121 129 158 55 35 198 79 312 97 55 9 111 18
125 20 64 11 539 -2 630 -18z m1051 -23 c-14 -51 -140 -190 -141 -155 0 13 7
37 16 55 18 33 124 150 131 143 2 -2 0 -21 -6 -43z m-202 -123 c27 -50 41 -88
41 -113 0 -21 -4 -36 -9 -32 -6 3 -28 39 -50 79 -30 54 -41 85 -41 117 0 52 6
47 59 -51z m671 63 c0 -5 -9 -22 -19 -39 -18 -29 -87 -72 -98 -60 -10 9 38 76
65 91 30 16 52 19 52 8z m-480 -37 c-9 -42 -33 -77 -94 -136 -41 -40 -46 -42
-46 -21 0 34 17 60 83 129 34 34 62 62 63 62 1 0 -2 -15 -6 -34z m187 -10
c-18 -46 -171 -775 -164 -782 6 -7 140 154 169 204 34 58 35 48 3 -62 -44
-151 -101 -258 -188 -353 -36 -39 -39 -48 -59 -165 -12 -67 -25 -127 -30 -133
-12 -14 -10 10 12 130 10 60 18 110 16 112 -7 7 -129 -113 -157 -154 -17 -24
-33 -43 -35 -40 -8 8 28 125 57 183 17 34 66 105 110 159 43 53 79 103 79 111
0 15 112 546 151 712 11 51 25 92 31 92 6 0 8 -6 5 -14z m-393 -121 c19 -33
37 -75 41 -94 l7 -33 18 38 c21 47 130 157 130 132 0 -37 -24 -76 -83 -135
-42 -44 -63 -59 -69 -50 -6 9 -8 8 -8 -3 0 -21 -77 112 -89 155 -5 19 -7 44
-4 56 7 24 7 24 57 -66z m675 -11 c27 -23 42 -54 25 -54 -17 0 -46 24 -59 50
-19 37 -6 38 34 4z m-695 -82 c30 -50 41 -81 44 -122 4 -50 3 -53 -11 -35 -38
51 -87 159 -87 191 0 19 3 34 8 34 4 0 25 -31 46 -68z m200 11 c-10 -42 -38
-83 -93 -138 -49 -47 -51 -48 -51 -24 0 31 36 88 93 147 48 49 60 53 51 15z
m-188 -168 c23 -48 32 -115 17 -115 -5 0 -27 35 -50 79 -32 59 -43 89 -43 122
l1 44 25 -40 c14 -22 36 -62 50 -90z m604 85 c0 -23 -28 -70 -41 -70 -14 0
-11 28 6 60 18 35 35 39 35 10z m-444 -67 c-8 -15 -40 -53 -70 -83 -49 -47
-56 -51 -56 -32 0 35 17 61 79 125 46 48 57 55 59 38 2 -11 -3 -32 -12 -48z
m572 -121 c25 -16 -66 -70 -120 -72 -42 -1 -1 44 59 66 46 16 45 16 61 6z
m-727 -258 c-11 -98 -28 -262 -37 -364 -16 -181 -19 -198 -29 -188 -7 7 54
639 72 743 17 95 13 -20 -6 -191z"/>
<path d="M2871 9924 c-13 -82 -25 -155 -25 -163 -1 -13 60 -35 74 -26 7 4 -8
253 -18 302 -6 31 -11 15 -31 -113z"/>
<path d="M2360 10044 c0 -124 9 -138 35 -52 25 84 15 168 -20 168 -13 0 -15
-19 -15 -116z"/>
<path d="M3100 9280 c0 -5 18 -10 41 -10 24 0 38 4 34 10 -3 6 -22 10 -41 10
-19 0 -34 -4 -34 -10z"/>
<path d="M2984 9231 c18 -20 56 -35 56 -22 0 14 -36 41 -55 41 -17 0 -17 -1
-1 -19z"/>
<path d="M11855 7879 c-121 -5 -500 -20 -841 -34 -342 -14 -663 -25 -714 -25
l-93 0 6 -642 c4 -354 13 -872 21 -1153 27 -926 39 -1664 33 -2074 l-6 -404
362 6 c199 4 666 10 1037 14 l675 6 1 2001 c0 1101 4 2072 8 2159 l7 157 -138
-2 c-76 0 -237 -5 -358 -9z m-653 -356 c66 -72 88 -110 88 -153 l0 -31 43 34
c52 43 111 73 160 82 32 6 37 5 37 -12 0 -16 -11 -22 -55 -32 -69 -15 -139
-62 -182 -121 -18 -25 -37 -50 -42 -56 -6 -8 12 -10 64 -6 42 2 87 0 108 -7
104 -35 175 -135 164 -236 -16 -154 -187 -317 -335 -319 -44 0 -68 5 -105 26
-27 15 -65 30 -85 34 -93 17 -171 89 -199 183 -24 85 -15 205 23 277 42 83 89
117 167 122 47 2 71 -1 99 -16 l37 -19 -42 59 c-39 56 -42 64 -42 126 0 63 20
136 34 130 4 -2 32 -31 63 -65z m-661 -406 c61 -120 70 -148 103 -302 21 -94
39 -178 42 -187 5 -16 29 -18 267 -20 l262 -3 0 -830 0 -830 -300 0 -300 0 -3
824 c-1 547 1 828 8 836 7 9 -1 64 -25 181 -32 155 -40 180 -102 307 -57 116
-65 139 -53 147 8 5 20 10 25 10 6 0 40 -60 76 -133z m1303 30 c48 -63 66
-116 66 -200 0 -43 -4 -86 -9 -96 -8 -13 -3 -19 21 -30 37 -17 67 -79 68 -138
0 -23 -7 -74 -15 -113 -14 -65 -14 -77 0 -124 22 -73 29 -183 16 -233 -31
-116 -134 -195 -253 -196 -83 -1 -150 23 -220 78 -114 90 -147 202 -92 313 24
48 163 192 185 192 5 0 25 33 45 73 65 130 105 167 183 167 l40 0 6 54 c11 83
-12 155 -70 224 -15 18 -23 36 -19 46 9 24 20 20 48 -17z m-204 -1247 c0 -6
-10 -30 -22 -53 -15 -30 -21 -60 -22 -104 0 -35 3 -65 6 -68 3 -4 24 -1 46 5
62 19 188 9 247 -20 205 -100 252 -372 92 -534 -28 -28 -50 -54 -49 -58 1 -5
-3 -8 -8 -8 -6 0 -10 -7 -10 -15 0 -8 -9 -15 -19 -15 -11 0 -23 -5 -26 -10 -5
-7 -11 -8 -19 -1 -7 6 -34 7 -69 2 -154 -21 -299 54 -364 188 -22 46 -27 70
-27 136 -1 121 45 211 148 286 l39 29 -32 0 c-49 0 -100 28 -132 73 -30 41
-39 97 -16 97 25 -1 103 -42 133 -71 l31 -30 6 50 c6 52 41 131 57 131 6 0 10
-5 10 -10z m465 -1016 c12 -12 13 -19 4 -30 -10 -12 -142 -14 -831 -14 -721 0
-819 2 -824 15 -4 8 -1 22 6 30 11 13 118 15 821 15 728 0 809 -2 824 -16z
m-695 -173 c6 -13 7 -102 0 -278 -15 -397 -34 -497 -108 -575 -34 -37 -106
-40 -141 -6 -64 59 -80 172 -81 574 0 215 3 264 14 273 12 10 19 8 35 -8 20
-20 21 -32 21 -218 0 -231 16 -487 34 -523 6 -14 24 -29 40 -35 24 -8 31 -6
46 13 38 46 56 200 65 542 4 129 8 241 10 248 7 19 53 14 65 -7z m-732 -17
c20 -8 32 -20 32 -32 0 -34 -25 -45 -85 -37 -65 8 -62 17 -69 -167 l-5 -128
25 0 c36 0 64 -18 64 -40 0 -25 -34 -43 -71 -38 l-29 5 0 -203 c0 -169 -2
-204 -15 -214 -12 -10 -21 -10 -42 -1 l-26 12 6 142 c4 78 9 255 12 392 7 295
9 313 37 324 28 10 126 2 166 -15z m224 0 c56 -29 68 -58 68 -164 0 -88 -3
-102 -31 -159 l-31 -61 27 -125 c25 -122 45 -191 82 -287 16 -44 16 -49 2 -64
-42 -41 -82 32 -124 226 -53 246 -53 245 -54 74 -1 -83 4 -176 9 -207 12 -64
2 -97 -30 -97 -32 0 -39 31 -39 186 -1 82 -5 258 -11 391 -11 253 -9 287 19
303 19 11 75 3 113 -16z m822 10 c19 -7 21 -35 4 -52 -7 -7 -29 -12 -50 -12
l-38 0 0 -356 0 -356 30 6 c68 13 107 -36 56 -69 -21 -14 -40 -15 -118 -8
l-93 8 0 30 c0 25 5 31 25 33 l25 3 -2 297 c-2 163 -3 323 -3 355 l0 57 -40 0
c-48 0 -71 28 -44 54 12 13 39 16 124 16 60 0 115 -3 124 -6z m333 -21 c23
-29 -2 -53 -54 -53 l-46 0 7 -117 c4 -65 14 -194 22 -288 17 -212 18 -347 2
-363 -14 -14 -44 -16 -52 -3 -3 4 -8 55 -11 112 -3 57 -12 214 -20 349 -8 135
-15 262 -15 283 0 34 -2 37 -30 37 -41 0 -80 20 -80 41 0 27 16 29 145 23 93
-4 123 -9 132 -21z"/>
<path d="M11455 7119 c39 -35 60 -93 50 -142 -6 -25 -4 -29 5 -21 6 6 14 29
17 51 7 50 -16 97 -60 123 -47 29 -53 24 -12 -11z"/>
<path d="M10703 6548 c3 -11 27 -119 53 -240 l48 -218 183 0 184 0 -3 -408 -3
-408 -27 -41 c-43 -65 -76 -75 -238 -71 -159 3 -178 11 -217 88 -23 44 -23 49
-23 442 l0 398 40 0 c22 0 40 3 40 8 -1 4 -21 97 -45 207 l-43 200 -1 -608
c-1 -579 0 -610 18 -645 23 -45 56 -77 94 -91 16 -6 84 -11 152 -11 68 0 136
5 152 11 40 15 73 48 94 94 17 38 19 79 19 678 l0 637 -241 0 -241 0 5 -22z"/>
<path d="M11761 6773 c-34 -26 -61 -77 -61 -110 1 -12 6 -7 14 12 19 45 66 96
101 111 29 13 29 13 5 13 -14 1 -40 -11 -59 -26z"/>
<path d="M10840 4508 c0 -132 2 -150 14 -138 22 23 46 117 46 177 0 66 -22
112 -52 113 -5 0 -8 -68 -8 -152z"/>
<path d="M2090 7789 c-162 -4 -468 -12 -679 -18 -211 -6 -532 -11 -713 -11
l-328 0 0 -147 c0 -82 7 -386 15 -678 8 -291 15 -607 15 -701 l0 -172 428 -6
c235 -4 670 -11 967 -16 297 -6 706 -10 909 -10 l369 0 -8 878 c-4 482 -9 879
-12 882 -8 8 -646 8 -963 -1z m-1203 -130 c104 -50 134 -172 61 -255 -43 -49
-83 -67 -148 -67 -31 0 -69 7 -86 16 -45 23 -92 81 -100 123 -26 140 136 249
273 183z m546 -32 c54 -22 111 -82 128 -134 6 -19 9 -64 7 -99 -4 -61 -3 -64
17 -58 135 44 305 61 449 45 152 -16 255 -44 382 -106 244 -118 337 -276 351
-594 l6 -135 102 -160 c55 -89 105 -167 110 -175 4 -8 -72 27 -170 77 l-178
91 -99 -66 c-195 -130 -356 -182 -584 -190 -162 -6 -253 6 -379 49 -319 109
-540 377 -510 617 15 118 74 240 161 331 l53 56 -50 17 c-171 61 -221 270 -92
388 85 79 182 94 296 46z m-517 -400 c53 -27 101 -75 131 -130 27 -49 24 -169
-4 -223 -29 -55 -103 -119 -160 -138 -141 -48 -308 15 -368 139 -24 52 -31
134 -15 191 18 64 96 147 163 174 73 29 182 23 253 -13z"/>
<path d="M775 7610 c-4 -11 -4 -34 0 -50 6 -28 5 -30 -25 -30 -19 0 -33 -6
-37 -16 -7 -19 15 -36 39 -30 12 3 18 -7 23 -43 8 -56 12 -62 31 -54 11 4 15
17 12 52 l-3 46 31 -2 c22 -2 34 2 38 13 9 24 -2 34 -39 34 -33 0 -34 1 -37
47 -3 49 -22 68 -33 33z"/>
<path d="M1237 7606 c-56 -20 -103 -60 -126 -109 -57 -117 15 -247 152 -277
52 -11 53 -11 132 34 44 25 92 52 107 60 32 17 53 81 43 129 -29 134 -174 210
-308 163z m50 -100 l36 -25 36 25 c45 30 85 31 105 2 21 -29 20 -64 -3 -114
-22 -48 -84 -120 -111 -129 -49 -16 -153 74 -176 151 -29 102 28 147 113 90z"/>
<path d="M1647 7002 c-26 -5 -47 -55 -47 -110 0 -35 10 -69 38 -128 49 -100
54 -123 43 -176 -11 -47 -32 -68 -61 -61 -14 4 -20 0 -20 -11 0 -42 72 -30
100 17 33 54 28 141 -15 222 -46 89 -56 127 -44 170 8 28 15 35 34 35 15 0 25
6 25 15 0 18 -29 33 -53 27z"/>
<path d="M2445 6998 c-2 -7 -16 -92 -31 -188 -26 -171 -43 -239 -44 -175 0 36
-36 246 -50 295 -14 51 -36 78 -50 64 -8 -8 -5 -35 14 -105 32 -119 52 -222
61 -322 6 -64 10 -77 24 -75 27 5 44 58 62 203 10 77 25 165 34 195 20 73 20
120 0 120 -9 0 -17 -6 -20 -12z"/>
<path d="M1390 6973 c-19 -38 -26 -310 -10 -381 28 -126 115 -150 163 -44 18
40 21 65 20 177 -1 152 -13 208 -55 247 -42 39 -99 40 -118 1z m106 -34 c16
-18 18 -38 19 -187 0 -181 -10 -232 -47 -232 -36 0 -51 61 -55 230 -6 173 2
210 40 210 13 0 32 -9 43 -21z"/>
<path d="M1753 6993 c-26 -10 -13 -33 17 -33 l30 0 0 -210 c0 -184 -2 -210
-16 -210 -9 0 -14 -7 -12 -17 5 -26 121 -26 126 -1 2 12 -5 17 -25 20 l-28 3
-3 208 -2 207 24 0 c29 0 44 19 25 31 -15 9 -115 11 -136 2z"/>
<path d="M1922 6993 c-20 -8 5 -33 33 -33 22 0 22 -3 35 -227 7 -126 14 -230
16 -232 2 -2 11 -1 20 3 15 6 16 18 10 109 -3 56 -9 157 -13 223 l-6 122 25
-5 c26 -5 47 13 32 27 -11 9 -134 20 -152 13z"/>
<path d="M2103 6994 c-23 -10 -14 -34 12 -34 l24 0 3 -202 c3 -193 2 -204 -17
-220 -31 -26 -8 -40 61 -36 47 2 59 7 62 21 3 13 -3 17 -26 17 l-29 0 -6 98
c-3 53 -3 148 0 210 6 110 6 112 30 112 18 0 24 5 21 18 -3 14 -15 17 -63 19
-33 1 -66 -1 -72 -3z"/>
<path d="M1209 6873 c-1 -375 2 -411 34 -384 11 9 13 35 9 125 -5 110 -4 114
17 121 54 17 81 89 66 175 -10 56 -35 80 -85 80 l-40 0 -1 -117z m65 71 c25
-10 22 -134 -4 -165 l-19 -24 -1 98 c0 53 2 97 4 97 2 0 11 -3 20 -6z"/>
<path d="M2519 6978 c-6 -115 -8 -342 -3 -405 l6 -83 60 0 c51 0 59 2 56 18
-2 12 -14 18 -41 20 l-37 3 0 114 0 114 28 3 c16 2 27 9 27 18 0 9 -11 16 -27
18 -28 3 -28 4 -28 77 l0 74 36 -2 c45 -2 57 19 19 33 -37 14 -95 13 -96 -2z"/>
<path d="M665 7197 c-157 -76 -192 -250 -75 -364 49 -47 96 -67 176 -71 90 -5
158 22 213 84 76 87 80 193 9 278 -50 61 -109 89 -197 93 -65 3 -83 1 -126
-20z m139 -32 c-1 -16 -5 -76 -9 -133 -8 -102 -21 -136 -43 -110 -12 15 -19
249 -8 267 4 7 20 11 34 9 23 -3 27 -8 26 -33z m-16 -307 c20 -20 14 -48 -14
-60 -29 -14 -57 -2 -62 26 -8 37 48 62 76 34z"/>
<path d="M3133 7083 c6 -654 17 -1016 31 -1030 25 -26 2714 -37 3546 -15 482
13 1200 35 1690 52 359 12 1145 37 1483 46 l247 7 0 818 0 819 -3147 -3
c-1732 -1 -3307 2 -3502 6 l-354 9 6 -709z m655 296 c28 -5 58 -16 67 -23 24
-17 22 -63 -3 -88 -18 -19 -25 -20 -66 -9 -74 18 -149 14 -180 -10 -22 -17
-27 -28 -24 -58 4 -44 31 -60 156 -92 126 -33 172 -82 172 -186 -1 -159 -144
-241 -356 -202 -81 15 -104 31 -104 74 0 53 31 69 94 50 96 -29 213 -13 230
30 3 9 6 30 6 46 0 39 -37 61 -149 88 -125 31 -170 71 -179 160 -9 94 46 183
133 215 48 18 136 20 203 5z m338 -10 c16 -17 20 -41 24 -136 l5 -115 90 113
c114 144 129 159 159 159 32 0 69 -45 60 -74 -4 -12 -43 -63 -86 -114 -44 -51
-78 -98 -75 -106 3 -7 26 -45 51 -85 25 -39 67 -110 92 -157 41 -74 45 -89 35
-110 -6 -13 -22 -29 -36 -36 -42 -19 -68 2 -119 97 -26 48 -64 112 -83 142
l-36 54 -28 -27 c-26 -25 -27 -32 -31 -131 -3 -96 -5 -106 -27 -124 -30 -24
-56 -24 -81 1 -19 19 -20 33 -20 325 0 292 1 306 20 325 26 26 62 25 86 -1z
m1272 3 c9 -9 69 -104 132 -210 l115 -193 3 193 c2 161 5 195 19 210 19 22 52
23 79 4 18 -14 19 -31 22 -318 3 -297 2 -305 -18 -331 -24 -30 -55 -34 -86
-13 -11 8 -71 100 -134 204 l-115 190 -5 -183 c-4 -162 -7 -185 -24 -204 -23
-25 -44 -27 -74 -5 -22 15 -22 16 -22 326 0 276 2 314 17 330 21 23 68 23 91
0z m727 -4 c40 -36 176 -435 201 -589 7 -44 -20 -79 -61 -79 -37 0 -59 29 -74
93 l-12 57 -109 0 -108 0 -12 -52 c-7 -29 -17 -61 -22 -70 -19 -38 -85 -31
-107 11 -23 42 141 568 196 627 28 31 74 31 108 2z m600 16 c9 -4 59 -93 112
-198 l95 -191 90 180 c50 99 97 188 106 198 19 22 60 22 84 0 17 -15 18 -39
18 -329 0 -312 0 -313 -22 -328 -32 -23 -54 -20 -77 10 -19 25 -21 41 -22 198
l-1 171 -63 -132 c-66 -136 -86 -160 -132 -148 -20 5 -38 33 -94 148 l-69 142
0 -183 c0 -169 -1 -183 -20 -202 -11 -11 -29 -20 -40 -20 -11 0 -29 9 -40 20
-19 19 -20 33 -20 325 0 292 1 306 20 325 20 20 45 25 75 14z m1889 -12 c15
-17 16 -51 14 -333 l-3 -313 -27 -16 c-25 -13 -31 -13 -55 0 l-28 16 -3 313
c-2 282 -1 316 14 333 10 10 29 18 44 18 15 0 34 -8 44 -18z m1013 3 c34 -24
130 -287 188 -514 24 -95 25 -105 10 -127 -20 -31 -59 -40 -89 -21 -16 11 -27
32 -36 76 l-13 61 -108 0 -108 0 -11 -42 c-21 -86 -48 -116 -94 -104 -48 12
-52 43 -21 163 61 237 152 483 188 508 27 19 67 19 94 0z m-4675 -12 c22 -20
23 -61 1 -85 -14 -15 -32 -18 -135 -18 l-118 0 0 -75 0 -75 88 0 c106 0 136
-13 140 -58 5 -55 -8 -62 -124 -62 l-104 0 0 -119 c0 -105 -2 -121 -21 -145
-25 -31 -61 -34 -89 -6 -19 19 -20 33 -20 318 0 253 2 301 16 320 15 21 21 22
181 22 141 0 169 -3 185 -17z m2812 1 c21 -20 20 -63 -1 -86 -14 -16 -33 -18
-140 -18 l-123 0 0 -74 0 -74 116 -4 c101 -3 117 -6 130 -22 8 -11 14 -29 14
-40 0 -46 -13 -51 -137 -56 l-118 -5 -3 -77 -3 -78 129 0 c146 0 165 -7 165
-60 0 -55 -16 -60 -207 -60 -144 0 -172 3 -188 17 -17 15 -18 38 -18 319 0
262 2 305 16 318 13 13 44 16 184 16 140 0 171 -3 184 -16z m470 4 c56 -17
109 -73 127 -134 9 -33 14 -98 14 -199 0 -147 -1 -151 -30 -210 -24 -47 -40
-65 -75 -85 -41 -23 -58 -25 -187 -28 -200 -5 -183 -36 -183 335 0 262 2 299
17 315 14 16 33 18 146 18 73 0 147 -5 171 -12z m904 -14 c39 -19 59 -38 80
-72 26 -45 27 -53 30 -213 4 -199 -4 -237 -62 -295 -53 -54 -92 -64 -245 -64
-102 0 -128 3 -143 17 -17 15 -18 38 -18 316 0 266 2 303 17 319 14 16 33 18
153 18 126 0 140 -2 188 -26z m-2160 -805 c4 -19 -27 -34 -41 -20 -14 14 0 43
20 39 10 -2 19 -10 21 -19z m1959 5 c3 -8 1 -20 -6 -27 -14 -14 -47 15 -37 32
10 16 36 13 43 -5z m-5293 0 c9 -3 16 -15 16 -26 0 -15 -4 -18 -17 -13 -64 26
-83 8 -83 -79 0 -75 12 -90 64 -80 28 5 36 3 36 -9 0 -18 -21 -27 -65 -27 -53
0 -75 36 -75 122 0 60 3 72 25 93 24 25 65 32 99 19z m544 -36 c3 -31 6 -34
26 -31 13 3 33 0 45 -6 18 -10 21 -21 21 -75 0 -40 -5 -68 -13 -75 -7 -6 -38
-10 -68 -9 l-54 1 3 106 c2 58 5 112 8 119 8 25 29 6 32 -30z m897 30 c2 -7 5
-61 7 -119 l3 -106 -54 -1 c-30 -1 -61 3 -68 9 -8 7 -13 34 -13 70 0 68 18 93
62 87 26 -4 28 -2 28 27 0 17 3 35 7 38 10 11 23 8 28 -5z m1029 -10 c3 -13 7
-66 8 -119 l3 -97 -57 -1 c-68 -1 -88 19 -88 84 0 58 24 88 66 83 32 -4 34 -2
34 27 0 48 25 64 34 23z m2334 -20 c3 -31 6 -34 26 -31 13 3 33 0 44 -6 28
-15 39 -88 20 -128 -12 -26 -18 -28 -73 -30 l-60 -2 3 107 c2 59 5 113 8 120
8 25 29 6 32 -30z m657 30 c2 -7 5 -61 7 -119 l3 -107 -56 -1 c-34 0 -61 4
-67 12 -33 42 -18 143 23 153 14 3 32 4 40 0 11 -4 15 2 15 28 0 18 3 36 7 39
10 11 23 8 28 -5z m349 -10 c3 -13 7 -66 8 -119 l3 -97 -57 -1 c-51 0 -60 2
-74 24 -12 18 -15 39 -11 72 6 54 28 76 70 70 25 -3 27 -1 27 28 0 48 25 64
34 23z m261 -60 c0 -42 -3 -79 -7 -83 -18 -18 -28 13 -28 86 0 71 2 80 18 77
14 -3 17 -15 17 -80z m-5178 33 c3 -11 13 -21 24 -24 25 -7 24 -27 -1 -27 -17
0 -20 -7 -20 -50 0 -45 3 -52 26 -60 29 -11 24 -30 -8 -30 -39 0 -58 28 -58
87 0 29 -4 53 -10 53 -5 0 -10 7 -10 15 0 8 5 15 10 15 6 0 10 9 10 20 0 26
30 26 37 1z m2013 0 c0 -12 8 -21 22 -23 30 -4 34 -26 6 -30 -42 -6 -36 -92 8
-108 30 -12 23 -30 -11 -30 -37 0 -55 26 -55 77 0 29 -6 53 -16 65 -16 16 -16
18 0 24 9 3 16 15 16 25 0 10 7 19 15 19 8 0 15 -9 15 -19z m-2740 -41 c14
-14 20 -33 20 -67 0 -56 -21 -83 -65 -83 -46 0 -66 20 -72 71 -4 35 -1 50 17
72 26 33 71 36 100 7z m175 11 c3 -5 18 -5 34 2 22 8 36 8 55 -1 25 -11 26
-16 26 -87 0 -60 -3 -75 -15 -75 -11 0 -15 12 -15 49 0 65 -7 81 -36 81 -21 0
-23 -4 -26 -62 -2 -50 -6 -63 -20 -66 -16 -3 -18 5 -18 63 l0 66 -27 -3 c-27
-3 -28 -6 -31 -65 -2 -46 -7 -63 -17 -63 -7 0 -16 8 -19 18 -4 15 -10 129 -7
142 2 9 110 10 116 1z m435 -1 c19 -10 24 -29 33 -116 l5 -42 -59 -1 c-62 -1
-89 14 -89 49 0 25 37 50 73 50 22 0 28 4 25 18 -2 12 -14 17 -38 18 -53 1
-57 3 -36 19 23 17 59 19 86 5z m300 -10 c11 -11 20 -33 20 -50 0 -29 -1 -30
-50 -30 -49 0 -50 -1 -39 -21 9 -17 17 -20 46 -16 28 5 34 3 31 -11 -2 -12
-15 -18 -44 -20 -57 -4 -74 15 -74 83 0 44 4 57 22 69 31 22 64 20 88 -4z m87
9 c8 -8 13 -8 17 0 13 21 65 12 81 -13 23 -34 17 -139 -7 -144 -14 -3 -17 7
-20 60 -3 60 -4 63 -28 63 -24 0 -25 -3 -28 -62 -2 -48 -7 -63 -18 -63 -19 0
-22 10 -27 98 -4 72 3 88 30 61z m443 -9 c26 -26 28 -105 3 -132 -18 -20 -64
-24 -93 -8 -36 19 -38 110 -4 144 22 22 70 20 94 -4z m256 12 c35 -23 45 -102
18 -140 -11 -16 -25 -22 -54 -22 -29 0 -43 6 -54 22 -23 33 -21 103 4 128 20
20 65 26 86 12z m264 -2 c20 -13 4 -25 -33 -25 -43 0 -42 -26 0 -37 44 -11 60
-41 38 -74 -14 -22 -22 -25 -62 -22 -61 4 -69 26 -12 30 50 4 63 24 22 34 -33
8 -63 32 -63 51 0 39 72 67 110 43z m161 -11 c13 -13 19 -30 17 -47 -3 -25 -7
-27 -50 -30 -49 -3 -54 -7 -39 -31 6 -10 20 -12 46 -8 30 5 36 3 33 -11 -4
-24 -80 -29 -102 -7 -22 22 -22 112 1 137 22 24 68 23 94 -3z m337 5 c15 -11
22 -25 22 -50 l0 -34 -50 0 c-49 0 -50 -1 -39 -21 9 -17 17 -20 46 -16 28 5
34 3 31 -11 -5 -25 -74 -29 -99 -6 -29 26 -27 117 3 138 12 9 32 16 43 16 11
0 31 -7 43 -16z m88 5 c4 -8 9 -8 17 0 20 20 65 13 82 -13 23 -34 17 -139 -7
-144 -16 -3 -18 5 -18 63 l0 66 -27 -3 c-27 -3 -28 -6 -31 -65 -2 -48 -7 -63
-18 -63 -19 0 -22 10 -27 98 -3 55 -1 72 9 72 7 0 16 -5 20 -11z m378 -5 c11
-10 16 -34 16 -69 0 -30 5 -57 10 -60 23 -15 6 -22 -52 -23 -68 -1 -88 9 -88
44 0 28 35 54 73 54 25 0 27 2 16 21 -8 16 -17 20 -39 16 -33 -7 -44 1 -29 20
16 18 74 17 93 -3z m90 7 c4 -5 18 -5 36 2 22 8 33 8 41 0 16 -16 2 -33 -26
-33 -28 0 -35 -16 -35 -81 0 -37 -4 -49 -15 -49 -12 0 -15 14 -15 63 0 35 -5
68 -11 74 -12 12 -4 33 11 33 5 0 11 -4 14 -9z m146 -76 c0 -66 -3 -85 -14
-85 -19 0 -26 22 -26 85 0 63 7 85 26 85 11 0 14 -19 14 -85z m148 63 c3 -14
-3 -17 -34 -15 -51 3 -55 -19 -6 -33 52 -14 69 -52 36 -84 -21 -22 -104 -22
-104 -1 0 11 11 15 41 15 32 0 40 3 37 16 -2 9 -19 22 -38 28 -28 9 -36 17
-38 41 -5 37 21 57 68 53 24 -2 36 -9 38 -20z m164 11 c10 -6 19 -5 23 1 12
20 64 11 80 -14 23 -34 17 -139 -7 -144 -16 -3 -18 5 -18 63 l0 66 -27 -3
c-27 -3 -28 -6 -31 -65 -2 -45 -7 -63 -16 -63 -19 0 -26 23 -26 81 0 45 -2 49
-25 49 -23 0 -24 -4 -27 -62 -2 -50 -6 -63 -20 -66 -16 -3 -18 5 -18 67 0 38
-5 73 -10 76 -20 13 0 21 52 22 29 0 61 -3 70 -8z m266 -5 c18 -12 22 -25 22
-69 0 -63 -16 -85 -62 -85 -49 0 -68 24 -68 86 0 43 4 56 22 68 12 9 32 16 43
16 11 0 31 -7 43 -16z m273 -5 c13 -13 19 -30 17 -47 -3 -25 -7 -27 -50 -30
-27 -2 -48 -6 -48 -10 1 -22 20 -33 51 -30 25 2 34 -1 34 -12 0 -23 -87 -26
-106 -4 -21 26 -18 107 5 133 24 27 70 27 97 0z m253 5 c11 -10 16 -34 16 -69
0 -30 5 -57 10 -60 23 -15 6 -22 -52 -23 -68 -1 -88 9 -88 44 0 28 35 54 73
54 25 0 27 2 16 21 -8 16 -17 20 -39 16 -33 -7 -44 1 -29 20 16 18 74 17 93
-3z m276 -4 c25 -25 27 -95 4 -128 -11 -16 -25 -22 -54 -22 -49 0 -70 27 -70
87 0 52 26 83 70 83 17 0 39 -9 50 -20z m342 3 c10 -9 18 -30 18 -50 0 -33 -1
-33 -46 -33 -38 0 -45 -3 -42 -17 3 -13 13 -18 40 -18 42 0 59 -12 38 -25 -24
-15 -82 -11 -102 7 -26 23 -25 106 2 133 24 24 67 26 92 3z m158 2 c13 -16 11
-17 -35 -19 -41 -1 -38 -26 5 -40 29 -9 36 -16 38 -42 4 -41 -16 -56 -70 -52
-57 4 -61 31 -4 32 53 1 57 22 7 36 -49 13 -65 48 -36 80 22 24 77 27 95 5z
m85 -71 c0 -67 -3 -79 -17 -82 -16 -3 -18 6 -18 76 0 43 3 82 7 86 19 19 28
-7 28 -80z m327 69 c9 -11 18 -46 20 -84 l5 -66 -55 -1 c-64 -2 -82 9 -82 49
0 32 23 49 65 49 20 0 26 4 23 18 -3 13 -12 16 -41 15 -26 -2 -37 2 -37 11 0
29 79 36 102 9z m346 1 c15 -11 22 -25 22 -50 0 -34 0 -34 -46 -34 -38 0 -45
-3 -42 -17 2 -13 14 -18 38 -19 52 -2 53 -3 40 -19 -17 -20 -79 -19 -102 2
-26 23 -25 106 2 133 24 24 57 26 88 4z m115 -116 c7 -21 -4 -38 -23 -38 -23
0 -34 16 -26 35 7 18 43 20 49 3z"/>
<path d="M6032 7082 c-18 -54 -32 -103 -32 -110 0 -8 22 -12 70 -12 48 0 70 4
70 12 0 19 -64 208 -70 208 -3 0 -20 -44 -38 -98z"/>
<path d="M9540 7083 c-18 -54 -35 -104 -38 -110 -3 -10 15 -13 72 -13 42 0 76
3 76 7 0 15 -62 198 -70 206 -4 5 -22 -36 -40 -90z"/>
<path d="M8030 7046 l0 -216 75 0 c68 0 77 2 107 29 l33 29 0 156 0 156 -28
27 c-24 25 -36 28 -107 31 l-80 4 0 -216z"/>
<path d="M8900 7046 l0 -216 69 0 c125 0 149 22 158 152 8 122 -3 213 -32 246
-21 25 -30 27 -109 31 l-86 3 0 -216z"/>
<path d="M4203 6453 c-8 -3 -13 -24 -13 -54 0 -45 2 -49 24 -49 13 0 27 7 30
16 10 26 7 69 -6 82 -13 13 -16 13 -35 5z"/>
<path d="M5001 6441 c-23 -43 -10 -91 26 -91 23 0 24 3 21 52 -3 58 -27 77
-47 39z"/>
<path d="M6032 6451 c-9 -5 -12 -24 -10 -52 3 -39 6 -44 28 -44 22 0 25 5 28
44 3 39 -7 61 -28 61 -3 0 -11 -4 -18 -9z"/>
<path d="M8462 6451 c-9 -5 -12 -24 -10 -52 2 -34 7 -45 22 -47 10 -2 22 2 27
10 13 19 11 72 -3 86 -14 14 -19 15 -36 3z"/>
<path d="M9022 6448 c-14 -14 -16 -66 -3 -86 5 -8 17 -12 27 -10 16 3 19 12
19 53 0 52 -17 69 -43 43z"/>
<path d="M9371 6446 c-7 -8 -11 -32 -9 -53 3 -33 6 -38 28 -38 22 0 25 5 28
44 2 28 -1 47 -10 52 -18 12 -24 11 -37 -5z"/>
<path d="M3747 6448 c-21 -11 -23 -71 -2 -88 27 -22 45 -4 45 44 0 47 -14 61
-43 44z"/>
<path d="M4357 6383 c-17 -17 -6 -34 20 -31 36 4 45 38 10 38 -13 0 -27 -3
-30 -7z"/>
<path d="M4657 6454 c-16 -16 -6 -34 19 -34 19 0 25 5 22 17 -3 19 -29 29 -41
17z"/>
<path d="M5187 6448 c-11 -5 -17 -21 -17 -41 0 -41 13 -60 36 -55 15 2 20 13
22 49 3 50 -10 65 -41 47z"/>
<path d="M5451 6451 c-8 -5 -11 -24 -9 -52 3 -39 6 -44 28 -44 22 0 25 5 28
42 2 32 -1 44 -15 52 -11 5 -25 6 -32 2z"/>
<path d="M5862 6448 c-20 -20 -14 -28 19 -28 24 0 30 4 27 17 -4 22 -29 28
-46 11z"/>
<path d="M6207 6453 c-17 -16 -5 -33 23 -33 28 0 30 2 20 20 -11 20 -31 26
-43 13z"/>
<path d="M6667 6383 c-15 -15 -6 -33 17 -33 20 0 36 16 36 36 0 7 -46 5 -53
-3z"/>
<path d="M7485 6444 c-19 -19 -19 -54 -1 -80 12 -15 18 -17 33 -8 21 13 27 36
19 69 -7 29 -31 38 -51 19z"/>
<path d="M7746 6445 c-9 -25 -9 -25 25 -25 24 0 30 4 27 18 -4 23 -44 28 -52
7z"/>
<path d="M8007 6383 c-15 -15 -6 -33 17 -33 20 0 36 16 36 36 0 7 -46 5 -53
-3z"/>
<path d="M8281 6446 c-7 -8 -11 -32 -9 -53 3 -33 6 -38 28 -38 22 0 25 5 28
38 3 36 -10 67 -28 67 -4 0 -13 -6 -19 -14z"/>
<path d="M8627 6453 c-17 -17 -5 -33 24 -33 24 0 30 3 25 16 -3 9 -6 18 -6 20
0 7 -36 5 -43 -3z"/>
<path d="M9185 6380 c-10 -16 4 -30 31 -30 17 0 24 5 24 20 0 15 -7 20 -24 20
-14 0 -28 -4 -31 -10z"/>
<path d="M9547 6453 c-17 -16 -5 -33 23 -33 32 0 37 9 18 28 -13 13 -31 16
-41 5z"/>
<path d="M9235 6053 c-66 -1 -397 -9 -735 -18 -338 -8 -765 -18 -947 -21
l-333 -7 8 -301 c9 -400 9 -2030 -1 -2942 l-8 -731 58 -7 c107 -11 436 -35
663 -48 262 -15 1524 -17 1931 -4 l266 8 7 222 c3 121 14 408 23 636 23 570
23 1746 0 2424 -9 274 -17 566 -17 647 l0 149 -397 -2 c-219 -1 -452 -3 -518
-5z m-1077 -342 c3 -27 0 -33 -12 -28 -8 3 -18 2 -21 -3 -4 -6 1 -10 9 -10 19
0 22 -66 6 -153 -23 -123 17 -284 185 -737 109 -293 145 -412 179 -585 21
-108 46 -297 46 -345 l0 -40 -170 0 c-107 0 -170 4 -170 10 0 6 60 10 160 10
l160 0 -6 48 c-44 378 -72 488 -224 898 -62 164 -128 354 -148 423 -35 122
-36 131 -35 284 l1 157 -135 0 -134 0 7 -122 c5 -98 3 -140 -11 -208 -22 -109
-78 -283 -161 -501 -160 -423 -181 -503 -239 -946 l-4 -33 380 0 c246 0 379
-4 379 -10 0 -6 -137 -10 -390 -10 l-390 0 0 38 c0 69 48 366 80 495 17 70 77
252 134 405 195 522 216 616 191 845 -7 69 -6 77 9 77 10 0 15 4 11 10 -3 5
-12 7 -20 3 -11 -4 -15 3 -15 24 0 16 3 33 7 37 4 3 81 5 172 4 l166 -3 3 -34z
m661 -19 c5 -10 6 -24 1 -32 -4 -8 -10 -62 -13 -120 -4 -58 -20 -188 -37 -290
-16 -102 -33 -233 -36 -293 -7 -114 -20 -145 -49 -116 -21 20 -51 146 -77 319
-12 82 -23 148 -25 147 -5 -6 -26 -190 -36 -324 -11 -140 -13 -148 -34 -151
-31 -5 -39 17 -52 148 -13 126 -77 583 -90 642 -6 23 -5 40 2 47 18 18 43 12
55 -14 16 -34 39 -175 56 -344 9 -79 17 -145 19 -147 5 -6 37 305 37 362 0 55
15 78 47 72 15 -3 20 -21 30 -103 12 -93 56 -315 72 -358 7 -20 47 295 57 453
3 52 7 101 9 108 6 18 53 14 64 -6z m625 -25 c14 -24 -14 -46 -49 -39 l-25 4
0 -178 c0 -99 5 -271 10 -383 11 -213 8 -231 -31 -231 -10 0 -20 8 -23 18 -3
9 -5 100 -5 202 -1 102 -4 268 -8 370 l-8 185 -25 -3 c-41 -5 -70 7 -70 28 0
42 210 67 234 27z m200 10 c10 -7 17 -22 15 -33 -3 -15 -14 -20 -47 -22 l-42
-3 0 -155 c0 -151 1 -155 20 -149 36 11 62 -4 58 -33 -3 -23 -8 -27 -40 -30
l-38 -3 0 -170 0 -169 48 0 c28 0 57 -6 68 -15 19 -15 19 -15 -5 -35 -18 -15
-38 -20 -86 -20 -38 0 -67 5 -73 13 -13 16 -20 803 -6 816 8 9 42 16 90 20 11
0 28 -5 38 -12z m206 -4 c39 -22 70 -83 77 -146 4 -40 -1 -70 -21 -130 -14
-42 -26 -91 -26 -108 0 -40 30 -158 75 -288 39 -116 43 -156 19 -165 -24 -9
-54 22 -54 55 0 33 -60 270 -89 349 l-20 55 0 -227 -1 -228 -24 0 c-16 0 -27
7 -31 21 -4 11 -3 202 1 425 l7 404 29 0 c17 0 43 -7 58 -17z m-734 -193 c24
-215 49 -561 43 -600 -3 -20 -10 -25 -34 -25 l-30 0 -3 83 c-3 93 -4 94 -89
105 -48 6 -45 11 -75 -123 -12 -49 -16 -55 -38 -55 -19 0 -25 5 -24 20 3 45
106 586 125 655 31 113 47 142 78 138 l25 -3 22 -195z m-75 -838 c16 -18 29
-44 29 -58 0 -42 -30 -92 -69 -116 l-36 -23 49 -3 c38 -3 53 1 70 17 13 12 25
19 28 15 10 -9 -12 -66 -39 -101 l-24 -33 -145 0 c-79 0 -144 4 -144 9 0 5 12
17 28 26 76 49 122 117 122 184 0 61 -43 76 -93 33 -10 -10 -21 -12 -26 -6
-15 15 6 52 41 74 27 17 46 20 107 18 68 -3 75 -6 102 -36z m496 25 c-2 -6
-22 -15 -45 -20 l-42 -8 0 -136 0 -135 28 7 c34 8 100 53 113 77 5 10 17 18
25 18 16 0 16 -10 -2 -101 l-5 -27 -207 -4 c-210 -5 -263 1 -209 21 16 6 37
11 48 11 19 0 19 7 17 138 l-3 137 -37 3 c-24 2 -38 8 -38 17 0 11 35 14 181
14 134 0 179 -3 176 -12z m-651 -617 c12 -107 25 -217 29 -243 7 -47 7 -49
-16 -45 -21 3 -25 10 -30 51 -5 50 -19 67 -56 67 -18 0 -23 -7 -28 -37 -8 -50
-22 -83 -35 -83 -22 0 -21 31 5 146 21 95 54 295 55 337 0 5 12 7 27 5 l28 -3
21 -195z m222 186 c77 -40 102 -101 102 -243 0 -121 -16 -173 -65 -211 -38
-30 -91 -30 -99 1 -8 32 -9 444 -1 457 9 14 31 13 63 -4z m301 -193 c12 -115
25 -225 28 -246 5 -36 4 -38 -18 -35 -21 3 -24 9 -27 48 -3 49 -21 70 -59 70
-19 0 -23 -7 -29 -50 -7 -53 -27 -81 -45 -63 -8 8 -3 45 14 124 24 111 39 198
53 307 5 48 8 52 33 52 l26 0 24 -207z m211 175 c0 -18 -9 -66 -20 -107 -15
-56 -20 -107 -20 -207 0 -98 -3 -134 -13 -143 -8 -6 -17 -8 -20 -4 -4 3 -7 62
-7 129 0 113 -3 130 -29 196 -39 100 -52 147 -40 154 18 10 35 -15 54 -76 10
-33 21 -57 25 -53 4 4 12 32 19 62 17 81 51 113 51 49z m-1425 -470 c-21 -184
-48 -259 -144 -408 -107 -165 -118 -269 -39 -365 47 -56 100 -79 188 -80 41 0
87 3 103 8 24 6 27 5 28 -15 1 -21 1 -21 9 4 4 14 23 40 41 57 33 28 35 29 59
14 25 -16 25 -16 6 5 -28 32 -10 75 35 83 l34 6 -31 2 c-31 1 -31 2 -27 45 7
62 -19 134 -85 230 -103 151 -134 234 -148 385 l-7 81 162 0 161 0 0 -565 0
-565 -555 0 -555 0 0 565 0 565 385 0 386 0 -6 -52z m1520 -225 c-3 -54 -10
-296 -16 -538 -14 -560 -19 -647 -46 -683 -37 -51 -64 -53 -483 -50 -290 2
-391 6 -407 16 -34 19 -51 61 -58 143 -5 65 -35 1057 -35 1167 l0 42 525 0
526 0 -6 -97z m-1477 -57 c16 -35 57 -104 90 -152 33 -49 66 -108 73 -132 11
-40 11 -44 -11 -67 -13 -14 -27 -25 -32 -25 -4 0 -8 24 -9 53 -2 91 -17 112
-18 25 -1 -43 -4 -78 -8 -78 -4 0 -30 19 -57 42 l-51 42 44 -48 c24 -26 39
-52 35 -56 -5 -5 -36 -11 -69 -13 l-60 -3 68 -2 c37 -1 67 -5 67 -9 0 -4 -19
-27 -42 -52 l-43 -44 51 36 c29 20 55 37 59 37 3 0 5 -12 3 -27 -4 -37 -43
-55 -118 -54 -121 0 -200 72 -200 180 0 57 21 107 87 208 33 50 71 116 83 147
13 31 25 56 26 56 1 0 16 -29 32 -64z m168 -391 c-3 -9 -12 -12 -21 -9 -14 6
-14 9 2 26 18 20 30 10 19 -17z m-36 -64 c0 -6 -4 -13 -10 -16 -5 -3 -10 1
-10 9 0 9 5 16 10 16 6 0 10 -4 10 -9z m188 -488 c-3 -124 -6 -143 -28 -187
-14 -29 -45 -65 -73 -88 l-49 -38 -421 0 -422 0 -45 34 c-26 19 -57 55 -75 87
-28 51 -30 61 -33 192 l-4 137 577 0 577 0 -4 -137z"/>
<path d="M7865 5680 c-3 -5 1 -10 10 -10 9 0 13 5 10 10 -3 6 -8 10 -10 10 -2
0 -7 -4 -10 -10z"/>
<path d="M7955 5680 c-3 -5 1 -10 10 -10 9 0 13 5 10 10 -3 6 -8 10 -10 10 -2
0 -7 -4 -10 -10z"/>
<path d="M7995 5680 c-3 -5 1 -10 10 -10 9 0 13 5 10 10 -3 6 -8 10 -10 10 -2
0 -7 -4 -10 -10z"/>
<path d="M8085 5680 c-3 -5 1 -10 10 -10 9 0 13 5 10 10 -3 6 -8 10 -10 10 -2
0 -7 -4 -10 -10z"/>
<path d="M7908 5673 c6 -2 18 -2 25 0 6 3 1 5 -13 5 -14 0 -19 -2 -12 -5z"/>
<path d="M8038 5673 c6 -2 18 -2 25 0 6 3 1 5 -13 5 -14 0 -19 -2 -12 -5z"/>
<path d="M9816 5593 c-3 -21 -6 -81 -6 -133 0 -93 0 -94 19 -75 39 41 44 204
7 234 -11 9 -15 3 -20 -26z"/>
<path d="M9026 5432 c-25 -110 -57 -322 -51 -332 3 -6 31 -10 61 -10 l55 0 -6
48 c-3 26 -12 116 -20 201 -8 84 -16 155 -18 158 -3 2 -12 -27 -21 -65z"/>
<path d="M8822 4077 c-6 -34 -14 -85 -18 -114 -6 -50 -6 -52 20 -59 15 -3 29
-5 31 -3 4 5 -13 231 -18 236 -2 1 -9 -25 -15 -60z"/>
<path d="M9087 4189 c-3 -11 -3 -104 0 -205 5 -159 8 -184 22 -182 8 2 24 19
35 37 41 70 31 287 -15 345 -25 31 -35 33 -42 5z"/>
<path d="M9336 4031 c-19 -121 -17 -130 27 -131 17 0 18 7 11 90 -12 162 -18
169 -38 41z"/>
<path d="M7626 3641 c-10 -11 -19 -35 -19 -53 -2 -27 2 -33 17 -33 14 0 22 10
28 33 9 35 28 41 49 15 10 -12 14 -45 12 -122 -1 -128 -21 -210 -93 -382 -28
-68 -52 -131 -53 -139 -2 -12 12 -16 64 -18 71 -3 123 11 116 31 -2 8 -25 12
-65 12 -34 0 -62 0 -62 1 0 1 25 67 55 147 68 179 88 272 83 382 -2 66 -8 90
-24 112 -27 36 -82 43 -108 14z"/>
<path d="M7824 3648 c-6 -8 -6 -144 1 -358 l10 -345 64 0 c42 0 65 4 68 12 8
22 -17 43 -52 43 l-32 0 -6 188 c-4 103 -7 239 -8 302 -1 63 -4 126 -8 139 -8
29 -24 37 -37 19z"/>
<path d="M8704 3428 c3 -90 11 -318 16 -508 12 -415 15 -443 43 -476 31 -35
104 -44 394 -44 l242 0 4 -42 4 -43 1 41 2 41 82 8 c92 8 135 25 148 59 10 29
27 397 36 819 l7 307 -492 0 -493 0 6 -162z m956 -321 c0 -35 -3 -146 -7 -245
l-6 -182 -61 0 c-34 0 -78 3 -99 7 l-39 6 73 73 c41 41 70 74 66 74 -5 0 -40
-27 -78 -60 -39 -33 -74 -58 -80 -55 -5 4 -10 45 -10 93 -1 48 -5 116 -9 152
l-7 65 -2 -60 c-2 -112 -14 -255 -20 -255 -3 0 -42 30 -86 67 -80 67 -76 59
28 -53 l38 -41 -38 -6 c-21 -4 -67 -7 -103 -8 -97 -1 -44 -17 60 -18 l85 -1
-80 -82 c-73 -74 -75 -78 -30 -45 98 71 125 90 129 86 2 -2 6 -48 10 -101 l6
-97 -47 -7 c-26 -4 -153 -4 -282 0 -248 8 -289 15 -311 56 -11 20 -21 202 -33
573 l-4 127 469 0 468 0 0 -63z m-19 -521 c-4 -136 -24 -159 -142 -165 l-79
-3 0 88 c0 49 4 95 9 103 7 11 27 0 92 -49 l84 -63 -72 74 c-40 41 -73 78 -73
81 0 6 141 16 174 13 5 -1 8 -36 7 -79z"/>
<path d="M7433 2624 c-10 -26 3 -217 18 -249 22 -51 50 -86 92 -116 l40 -29
409 0 408 0 54 53 c68 66 86 120 86 259 l0 98 -550 0 c-489 0 -551 -2 -557
-16z"/>
<path d="M1383 5994 c-3 -9 -3 -77 1 -152 8 -168 -8 -816 -34 -1378 -10 -230
-22 -515 -26 -632 l-7 -213 169 4 c93 3 1224 10 2514 15 1941 9 3194 23 3206
35 5 4 -15 2028 -22 2165 l-6 143 -2252 -7 c-2286 -7 -2409 -6 -3404 30 -113
4 -134 3 -139 -10z m2781 -200 c13 -5 14 -56 9 -447 -6 -463 -8 -490 -47 -457
-20 16 -96 252 -167 515 l-54 200 -3 -165 c-2 -91 2 -245 8 -343 12 -191 9
-211 -34 -205 -19 3 -20 11 -26 188 -9 329 -3 671 13 688 12 12 17 10 35 -13
30 -38 87 -218 153 -480 l58 -230 0 362 c1 315 3 364 17 377 18 18 17 18 38
10z m531 -28 c29 -21 12 -47 -29 -44 -42 3 -63 -14 -77 -61 -18 -59 4 -140 76
-291 76 -159 89 -208 83 -298 -9 -123 -71 -202 -158 -202 -57 0 -95 25 -84 54
7 18 18 18 81 0 46 -13 93 76 93 179 0 60 -24 136 -77 242 -64 126 -83 187
-83 263 0 72 19 122 58 152 29 23 89 26 117 6z m299 -5 c24 -26 12 -42 -30
-39 -47 3 -75 -26 -81 -86 -8 -66 10 -124 83 -277 76 -158 94 -235 76 -325
-22 -106 -78 -164 -160 -164 -53 0 -82 14 -82 40 0 28 15 32 61 18 41 -12 42
-11 69 19 39 44 56 129 41 208 -6 32 -37 115 -70 185 -107 223 -116 327 -36
407 40 40 100 46 129 14z m-1756 -23 c3 -25 0 -27 -40 -30 l-43 -3 2 -85 c1
-47 5 -118 9 -158 l6 -74 31 6 c41 7 60 -5 55 -35 -2 -19 -12 -26 -47 -33
l-43 -9 8 -121 c15 -200 12 -287 -8 -300 -13 -8 -21 -7 -32 4 -12 12 -17 77
-26 335 -6 176 -15 357 -20 403 -5 45 -6 90 -3 98 9 23 42 33 98 31 46 -2 50
-4 53 -29z m237 2 c0 -20 -6 -26 -28 -28 -16 -2 -31 -10 -34 -19 -8 -21 29
-733 38 -727 16 9 59 -16 59 -35 0 -25 -28 -34 -113 -34 -49 0 -73 5 -84 16
-21 21 -4 44 35 49 32 4 30 -34 17 440 l-8 297 -25 3 c-48 6 -35 45 19 58 19
5 54 8 79 7 41 -2 45 -4 45 -27z m305 15 c21 -25 4 -45 -37 -45 l-38 0 3 -212
c2 -117 7 -294 11 -393 5 -105 5 -187 -1 -197 -9 -18 -43 -24 -52 -10 -3 5 -8
175 -11 378 -3 203 -8 382 -11 397 -5 25 -9 27 -35 22 -70 -16 -100 36 -31 55
83 22 185 25 202 5z m635 -5 c25 -28 5 -50 -46 -50 l-38 0 1 -160 2 -160 33 2
c38 2 56 -12 51 -38 -2 -14 -14 -20 -41 -22 l-37 -3 0 -182 0 -183 56 0 c65 0
87 -18 53 -46 -26 -22 -150 -26 -167 -5 -13 16 -20 834 -6 846 10 10 44 18 90
20 19 0 38 -6 49 -19z m1555 -20 c97 -27 265 -108 344 -164 83 -59 187 -171
229 -248 62 -110 103 -270 121 -465 6 -61 5 -63 -18 -63 -28 0 -36 16 -36 75
0 116 -48 304 -108 420 -94 183 -352 358 -604 409 -307 63 -609 -87 -708 -352
-18 -47 -21 -73 -18 -147 3 -79 8 -98 38 -153 93 -174 327 -292 578 -292 216
0 353 70 417 211 33 74 38 180 11 242 -59 135 -183 177 -396 132 -162 -33
-284 -4 -324 79 -17 36 -18 43 -5 80 18 51 81 100 157 122 164 48 454 -36 603
-174 111 -102 159 -211 159 -359 0 -142 -44 -269 -140 -405 -83 -120 -106
-143 -125 -128 -21 17 -19 33 6 56 35 31 105 134 142 209 52 104 70 183 65
291 -3 81 -8 100 -41 167 -66 134 -193 225 -395 283 -166 47 -326 20 -374 -63
-16 -26 -17 -35 -6 -58 27 -59 131 -78 268 -49 183 38 304 17 388 -69 62 -63
86 -125 85 -222 -1 -104 -28 -177 -93 -248 -93 -101 -220 -148 -401 -148 -402
0 -717 269 -668 570 20 125 63 206 162 304 79 78 207 146 322 171 95 21 265
15 365 -14z m-4076 -46 c14 -13 16 -51 16 -258 0 -266 -1 -271 -57 -264 l-28
3 -3 254 c-2 179 1 258 9 267 15 19 44 18 63 -2z m155 2 c8 -9 11 -88 9 -267
l-3 -254 -53 -3 c-31 -2 -60 2 -68 9 -22 18 -21 491 2 513 19 20 97 21 113 2z
m570 0 c8 -9 11 -88 9 -267 l-3 -254 -53 -3 c-31 -2 -60 2 -68 9 -11 9 -14 58
-14 260 0 226 2 249 18 258 25 15 98 13 111 -3z m103 -3 c16 -15 18 -36 18
-250 0 -142 -4 -242 -10 -254 -7 -12 -21 -19 -40 -19 -19 0 -33 7 -40 19 -6
12 -10 110 -10 248 0 191 3 232 16 251 18 26 41 28 66 5z m-922 -99 c6 -14 10
-87 10 -162 0 -146 -10 -182 -50 -182 -44 0 -50 22 -50 181 0 85 5 159 10 170
16 30 68 26 80 -7z m1028 14 c8 -8 12 -61 12 -173 0 -169 -4 -185 -45 -185
-41 0 -45 16 -45 185 0 169 4 185 45 185 12 0 26 -5 33 -12z m-1128 -173 c0
-52 -1 -55 -25 -55 -24 0 -25 3 -25 55 0 52 1 55 25 55 24 0 25 -3 25 -55z
m780 0 l0 -55 -200 0 -200 0 0 55 0 55 200 0 200 0 0 -55z m420 0 c0 -52 -1
-55 -25 -55 -24 0 -25 3 -25 55 0 52 1 55 25 55 24 0 25 -3 25 -55z m-668
-486 c124 -26 240 -111 295 -216 114 -216 36 -466 -175 -566 -61 -29 -76 -32
-162 -32 -82 0 -103 4 -151 26 -79 37 -133 90 -171 167 -30 60 -33 76 -33 152
0 108 27 172 96 234 58 52 121 76 200 76 108 0 189 -45 239 -133 95 -166 0
-361 -176 -359 -105 1 -184 73 -191 175 -5 68 19 115 70 141 47 23 95 15 131
-20 25 -26 44 -84 32 -103 -7 -11 -66 5 -65 17 4 27 -4 44 -26 54 -57 26 -102
-52 -71 -125 39 -95 191 -103 245 -13 80 134 -25 306 -187 306 -218 0 -319
-269 -166 -439 60 -67 127 -95 224 -96 131 0 234 64 292 183 29 59 33 76 33
152 0 76 -3 93 -33 152 -66 135 -185 210 -337 212 -323 4 -522 -326 -374 -622
60 -120 179 -207 325 -237 218 -45 873 -75 1270 -57 496 22 761 71 864 159 33
29 43 32 60 23 27 -14 25 -23 -10 -59 -81 -81 -308 -140 -660 -173 -178 -16
-903 -16 -1120 0 -240 19 -415 41 -485 63 -119 37 -246 142 -301 251 -55 109
-69 250 -36 369 67 240 311 389 554 338z m4540 -198 l3 -40 -60 -5 c-33 -3
-93 -8 -132 -11 l-73 -6 0 35 c0 20 0 39 0 44 0 8 86 18 186 20 l72 2 4 -39z
m138 -58 c115 -154 133 -214 84 -272 -14 -17 -30 -31 -35 -31 -12 0 -11 37 2
74 9 25 8 39 -3 66 -22 51 -135 200 -153 200 -8 0 -15 4 -15 9 0 5 -3 16 -6
25 -5 13 1 16 28 16 31 0 39 -7 98 -87z m-3375 -13 c130 -98 163 -115 263
-139 73 -18 76 -19 49 -30 -40 -16 -65 -14 -143 10 -120 36 -304 154 -304 194
0 17 16 45 26 45 1 0 50 -36 109 -80z m2955 55 c0 -14 -6 -25 -12 -25 -19 0
-119 -184 -125 -230 -4 -27 0 -47 11 -64 18 -29 21 -66 5 -66 -6 0 -24 14 -41
30 -28 29 -30 35 -26 88 3 46 16 79 67 175 58 109 64 117 92 117 24 0 29 -4
29 -25z m-1720 -5 c0 -17 -7 -20 -50 -20 -43 0 -50 3 -50 20 0 17 7 20 50 20
43 0 50 -3 50 -20z m460 -1 c0 -18 -5 -20 -52 -17 -41 2 -54 7 -56 21 -3 14 5
17 52 17 50 0 56 -2 56 -21z m-2267 -83 c85 -171 273 -295 515 -342 155 -30
453 -12 518 31 13 9 35 33 49 54 28 45 40 55 56 46 7 -5 6 -12 -4 -23 -8 -10
-24 -36 -36 -59 -22 -45 -13 -40 -166 -83 -22 -6 -94 -14 -161 -17 -138 -7
-275 12 -409 55 -61 19 -98 25 -155 23 -91 -2 -168 10 -282 45 l-87 27 -6 38
c-11 64 19 205 56 266 18 29 22 31 48 22 22 -8 37 -28 64 -83z m1911 38 c19
-18 19 -20 6 -45 -10 -17 -23 -19 -160 -19 -137 0 -150 2 -160 19 -13 25 -13
27 6 45 12 13 41 16 154 16 113 0 142 -3 154 -16z m456 2 c6 -8 10 -25 8 -38
-3 -23 -5 -23 -160 -26 l-157 -3 -7 26 c-12 49 5 55 161 55 112 0 145 -3 155
-14z m663 -58 c-12 -13 -19 -15 -29 -7 -9 7 -40 3 -111 -16 -130 -34 -166 -52
-178 -91 -11 -34 -33 -64 -46 -64 -5 0 -9 22 -9 48 0 40 5 53 28 74 41 39 67
50 197 84 l120 31 22 -20 c22 -19 22 -22 6 -39z m683 54 c6 -4 18 -22 27 -41
15 -31 16 -37 3 -50 -14 -13 -18 -13 -35 3 -11 10 -24 15 -30 12 -15 -10 -30
25 -24 57 5 27 33 37 59 19z m-3217 -54 c32 -22 48 -39 40 -42 -8 -2 -50 -11
-94 -21 -65 -14 -156 -46 -261 -91 -6 -3 -26 7 -44 23 -34 28 -120 138 -120
153 0 4 21 2 46 -6 108 -32 242 -27 323 14 40 20 37 21 110 -30z m2605 -14
c17 -15 59 -53 93 -86 l63 -59 -22 -30 c-12 -16 -26 -29 -31 -29 -5 0 -51 39
-103 87 l-94 87 27 28 c15 15 29 28 31 28 2 0 18 -12 36 -26z m-1186 -26 c16
-16 15 -33 -4 -52 -23 -23 -285 -23 -308 0 -19 18 -19 20 -6 45 10 17 23 19
158 19 102 0 152 -4 160 -12z m460 -16 c7 -47 -10 -52 -162 -52 -97 0 -146 4
-154 12 -13 13 -16 51 -5 62 4 3 77 5 162 4 154 -3 156 -3 159 -26z m-1732
-37 c19 -14 19 -14 -1 -15 -36 -1 -153 -57 -221 -105 l-66 -47 -40 18 c-37 17
-39 19 -21 32 40 31 157 83 235 106 100 30 90 29 114 11z m387 -40 c85 -25 86
-26 36 -91 -62 -81 -87 -88 -344 -88 -114 0 -210 4 -224 10 -23 10 -22 11 27
56 28 24 83 62 122 82 l71 38 64 -13 c55 -11 69 -10 102 3 50 21 83 21 146 3z
m777 -165 l0 -180 -50 0 -50 0 0 180 0 180 50 0 50 0 0 -180z m458 3 l-3 -178
-50 0 -50 0 -3 178 -2 177 55 0 55 0 -2 -177z m837 147 c16 -18 17 -24 5 -60
-10 -32 -18 -40 -37 -40 -18 0 -23 5 -23 25 0 14 -4 25 -10 25 -18 0 -11 29
12 50 27 25 31 25 53 0z m-145 -200 c80 -73 152 -139 160 -146 12 -12 9 -19
-20 -49 -19 -19 -37 -35 -41 -35 -4 0 -96 82 -204 182 l-196 181 38 39 37 38
41 -38 c22 -21 105 -98 185 -172z m1014 133 c3 -26 3 -50 -1 -54 -5 -3 -96
-12 -203 -18 -107 -6 -228 -14 -267 -18 l-73 -6 0 57 0 56 53 1 c28 1 129 7
222 13 94 7 191 14 216 15 l46 1 7 -47z m-681 10 c14 -16 13 -29 -8 -138 -39
-204 -68 -243 -174 -237 -24 2 -24 2 -5 23 10 11 33 27 50 34 38 16 56 59 79
188 13 69 14 91 4 103 -9 11 -9 17 1 29 16 20 33 19 53 -2z m-2129 -38 c10
-40 -17 -88 -69 -123 -108 -72 -258 -103 -501 -103 -148 0 -158 1 -205 25 -59
31 -69 32 -119 6 -33 -17 -59 -20 -162 -20 -129 0 -244 14 -265 32 -18 14 -16
53 2 68 12 10 32 9 97 -4 103 -20 219 -25 225 -10 2 7 -34 15 -99 22 -140 15
-201 35 -217 68 -6 15 -10 28 -8 31 3 2 44 -8 93 -23 69 -21 117 -28 214 -31
97 -4 140 -10 192 -28 218 -78 546 -80 713 -6 39 17 49 28 67 71 23 56 33 62
42 25z m756 -265 c8 -14 8 -26 0 -40 -10 -19 -21 -20 -155 -20 -117 0 -146 3
-159 16 -19 18 -19 20 -6 45 10 17 23 19 160 19 139 0 150 -1 160 -20z m456
-5 c12 -49 -5 -55 -160 -55 -145 0 -166 5 -166 40 0 35 21 40 172 40 l148 0 6
-25z m-462 -81 c19 -18 19 -20 6 -45 -10 -17 -23 -19 -160 -19 -137 0 -150 2
-160 19 -13 25 -13 27 6 45 12 13 41 16 154 16 113 0 142 -3 154 -16z m456 2
c6 -8 10 -25 8 -38 -3 -23 -5 -23 -160 -26 l-157 -3 -7 26 c-12 49 5 55 161
55 112 0 145 -3 155 -14z m-560 -106 c0 -17 -7 -20 -50 -20 -43 0 -50 3 -50
20 0 17 7 20 50 20 43 0 50 -3 50 -20z m458 3 c-3 -14 -14 -18 -53 -18 -39 0
-50 4 -53 18 -3 14 5 17 53 17 48 0 56 -3 53 -17z"/>
<path d="M2655 3600 c-187 -4 -361 -8 -387 -9 l-48 -1 0 -257 c0 -142 7 -463
15 -713 8 -250 15 -613 15 -806 l0 -352 533 -6 c1464 -19 1782 -22 1786 -19 3
2 7 486 9 1077 l5 1073 -164 6 c-265 11 -1396 15 -1764 7z m140 -274 c18 -8
38 -23 44 -34 19 -36 13 -137 -11 -186 -21 -44 -21 -45 -4 -128 10 -46 29
-116 43 -157 17 -49 22 -76 15 -83 -27 -27 -53 25 -86 176 -14 66 -29 122 -32
125 -4 3 -4 -63 -1 -146 4 -141 3 -153 -13 -153 -19 0 -20 12 -36 412 -8 194
-2 208 81 174z m1159 -7 c16 -14 -15 -41 -42 -36 l-25 5 7 -132 c20 -408 20
-395 2 -402 -25 -10 -28 -2 -32 83 -2 43 -9 153 -14 245 -6 92 -10 176 -10
188 0 14 -7 20 -21 20 -11 0 -30 5 -41 11 -20 11 -20 13 -5 24 19 13 165 9
181 -6z m400 5 c3 -9 6 -32 6 -52 0 -49 28 -304 46 -421 15 -98 11 -116 -22
-109 -15 3 -20 16 -26 67 -4 35 -8 65 -10 66 -2 2 -22 6 -44 10 l-42 6 -11
-62 c-12 -71 -31 -99 -54 -81 -12 10 -9 34 19 156 17 79 39 199 49 267 23 177
21 169 54 169 17 0 31 -6 35 -16z m-1759 -14 c0 -8 -11 -16 -25 -18 -57 -8
-75 -57 -86 -230 -10 -155 19 -262 74 -270 29 -4 42 25 49 108 l6 69 -34 3
c-26 2 -34 8 -34 23 0 16 8 21 37 23 68 6 76 -5 76 -110 0 -110 -7 -132 -47
-153 -62 -31 -126 -10 -157 52 -27 54 -33 336 -10 416 22 75 58 109 110 105
28 -2 41 -8 41 -18z m474 -4 c24 -25 -2 -47 -41 -35 -18 5 -33 8 -34 6 -1 -1
-4 -40 -5 -87 -4 -81 -3 -85 18 -86 34 -2 53 -12 53 -29 0 -10 -10 -15 -34
-15 l-33 0 -6 -132 c-3 -73 -3 -136 0 -140 2 -5 24 -8 49 -8 36 0 44 -3 44
-19 0 -31 -89 -43 -125 -17 -18 13 -19 29 -18 289 1 152 4 281 8 288 10 16
104 4 124 -15z m176 10 c19 -8 35 -20 35 -25 0 -17 -33 -29 -55 -20 -41 16
-43 12 -42 -77 l2 -87 29 -3 c59 -6 60 -44 1 -44 l-33 0 -1 -140 -1 -140 50 0
c55 0 68 -19 29 -41 -22 -11 -104 -7 -117 6 -11 11 -12 547 -1 567 12 22 56
24 104 4z m148 -3 c23 -27 61 -128 107 -285 23 -79 44 -152 48 -163 11 -34 20
77 21 265 1 96 5 181 10 189 5 8 16 11 27 7 16 -6 17 -23 10 -244 -9 -286 -13
-322 -43 -333 -27 -10 -38 3 -48 56 -9 51 -132 396 -146 409 -7 8 -10 -57 -8
-224 2 -225 2 -235 -17 -235 -14 0 -20 11 -27 45 -12 61 -1 484 13 510 13 25
32 26 53 3z m722 3 c40 -17 41 -19 20 -40 -12 -12 -22 -13 -41 -6 -43 17 -45
14 -42 -76 l3 -87 29 -3 c59 -6 60 -44 0 -44 l-34 0 0 -140 0 -140 50 0 c38 0
50 -4 50 -15 0 -33 -106 -48 -134 -19 -14 14 -16 52 -16 281 1 155 5 274 11
285 12 22 56 24 104 4z m-65 -706 c0 -6 -7 -22 -16 -36 -9 -13 -15 -27 -12
-29 2 -2 24 3 48 11 84 29 175 -1 221 -75 36 -55 37 -102 6 -161 -32 -61 -75
-92 -207 -150 -90 -39 -124 -60 -157 -95 -23 -25 -47 -45 -53 -45 -5 0 -40
-31 -77 -68 -38 -38 -93 -81 -125 -97 -58 -30 -66 -39 -48 -50 33 -21 -11 -25
-255 -25 l-265 0 12 21 c10 17 10 23 1 26 -7 3 -46 26 -86 52 -118 77 -165
153 -207 331 -46 199 -75 290 -128 393 -2 4 300 7 672 7 459 0 676 -3 676 -10z
m290 -849 c-25 -15 -200 -49 -330 -66 -178 -22 -1042 -22 -1220 0 -130 17
-305 51 -330 66 -9 5 394 8 940 8 546 0 949 -3 940 -8z"/>
<path d="M2760 3193 c1 -95 2 -106 15 -89 16 21 37 108 31 128 -3 7 -7 25 -10
41 -4 15 -13 27 -21 27 -12 0 -15 -19 -15 -107z"/>
<path d="M4291 3072 c-13 -78 -22 -145 -19 -147 2 -3 19 -8 38 -11 l33 -7 -7
114 c-13 208 -19 214 -45 51z"/>
<path d="M4051 2498 c-25 -13 -53 -35 -63 -48 -16 -23 -81 -290 -72 -299 2 -2
9 1 16 6 7 5 49 22 93 38 108 37 164 67 202 107 43 45 56 82 43 123 -28 86
-131 120 -219 73z"/>
<path d="M3520 2340 c-192 -52 -297 -115 -375 -226 l-46 -67 48 6 48 5 -40
-13 -40 -13 49 -22 c73 -33 179 -26 267 17 120 59 296 245 287 303 -3 20 -4
20 -43 -5 -40 -27 -20 -4 26 27 24 17 24 17 -26 17 -27 0 -97 -13 -155 -29z
m110 -44 c0 -6 -167 -109 -235 -145 -79 -42 -57 -27 100 69 139 84 135 82 135
76z m-350 -205 c-19 -10 -46 -21 -60 -25 -14 -3 -2 5 25 18 58 28 87 34 35 7z"/>
<path d="M6455 3589 c-154 -3 -617 -10 -1030 -14 l-750 -8 0 -596 c-1 -328 -9
-901 -19 -1274 -10 -373 -16 -680 -13 -684 14 -13 857 -21 1663 -16 l862 6 7
196 c8 209 2 563 -20 1286 -8 248 -15 600 -15 783 l0 332 -202 -2 c-112 -1
-329 -5 -483 -9z m-325 -74 c118 -36 150 -69 165 -170 9 -63 19 -81 54 -100
29 -14 29 -14 45 26 14 35 18 38 36 29 20 -11 27 -30 12 -30 -5 0 -14 -12 -21
-27 -10 -22 -10 -28 4 -36 9 -5 14 -16 11 -25 -4 -12 8 -26 35 -46 48 -34 88
-91 100 -143 17 -76 10 -77 -122 -7 -105 56 -139 71 -139 62 0 -2 35 -39 78
-83 91 -94 142 -189 166 -307 20 -97 20 -139 0 -236 -25 -125 -74 -214 -168
-308 l-81 -81 47 -104 c26 -56 45 -106 42 -111 -14 -21 -36 0 -94 87 l-62 94
-37 -19 c-71 -36 -161 -54 -271 -53 -91 0 -117 4 -196 31 -50 18 -94 32 -96
32 -3 0 -32 -40 -64 -90 -37 -56 -66 -90 -76 -90 -10 0 -18 4 -18 10 0 5 20
56 45 112 l46 102 -55 49 c-95 82 -172 218 -197 345 -14 75 -7 214 15 285 29
92 88 189 159 260 38 37 67 71 64 73 -3 3 -56 -22 -119 -55 -63 -34 -120 -61
-128 -61 -19 0 -4 76 26 127 13 23 44 57 68 75 25 20 41 39 38 47 -3 8 3 20
12 26 14 11 15 17 5 39 -7 14 -16 26 -21 26 -15 0 -8 19 12 30 18 9 22 6 36
-29 16 -40 16 -40 45 -26 36 19 46 39 55 106 6 55 24 94 53 116 24 19 117 52
174 63 73 13 251 4 317 -15z m-843 -682 c-4 -10 -18 -52 -33 -93 -70 -195 -27
-457 95 -589 43 -47 50 -61 28 -61 -37 0 -115 115 -154 227 -25 71 -27 91 -27
218 0 120 3 149 22 204 25 70 49 111 64 111 6 0 8 -8 5 -17z m1322 -21 c40
-78 55 -153 56 -272 0 -126 -13 -192 -55 -285 -35 -77 -104 -165 -130 -165
-28 0 -26 7 26 62 80 85 134 241 134 384 0 75 -27 198 -55 255 -22 43 -23 59
-4 59 5 0 17 -17 28 -38z m-1474 -274 c0 -166 8 -203 66 -320 33 -66 34 -68
15 -68 -22 0 -82 129 -101 215 -18 78 -19 286 -2 313 18 28 22 5 22 -140z
m1618 101 c14 -73 1 -246 -23 -324 -26 -82 -70 -165 -87 -165 -18 0 -17 3 22
85 20 41 42 104 50 142 16 76 19 208 6 265 -5 20 -6 40 -3 43 14 13 27 -5 35
-46z m-1723 -149 c0 -59 24 -183 45 -234 18 -44 18 -46 1 -46 -37 0 -100 293
-69 323 16 17 23 3 23 -43z m1824 26 c16 -63 -40 -306 -70 -306 -18 0 -18 5 6
67 20 52 43 210 33 226 -7 11 4 37 16 37 5 0 12 -11 15 -24z m-1771 -835 c28
-16 62 -62 85 -114 15 -35 16 -257 1 -312 -6 -22 -28 -56 -49 -77 -32 -33 -44
-38 -83 -38 -38 0 -46 3 -50 23 -3 12 -7 136 -8 275 -2 275 -2 278 51 265 14
-3 37 -13 53 -22z m319 -146 c9 -93 24 -217 33 -274 16 -110 12 -133 -24 -124
-15 4 -20 18 -26 68 l-6 63 -37 5 c-20 2 -38 3 -39 2 -2 0 -8 -30 -15 -66 -11
-54 -16 -64 -36 -67 -12 -2 -24 3 -27 10 -3 8 6 61 20 119 14 57 34 169 46
249 30 209 25 192 61 188 l32 -3 18 -170z m237 166 c20 -13 5 -41 -22 -41 -24
0 -24 -2 -30 -122 -3 -68 -3 -171 0 -230 l6 -108 28 0 c31 0 42 -11 33 -34 -9
-23 -149 -23 -158 -1 -3 9 3 20 14 27 19 12 20 25 20 240 l0 228 -30 0 c-23 0
-30 5 -30 19 0 11 6 22 13 24 21 9 141 7 156 -2z m106 -249 c0 -153 4 -255 10
-261 6 -5 28 -11 50 -13 32 -2 40 -7 40 -23 0 -18 -7 -20 -75 -20 l-75 0 4
275 c2 167 8 280 14 288 28 35 32 2 32 -246z m312 242 c3 -9 -6 -63 -21 -120
-23 -91 -26 -124 -26 -263 0 -127 -3 -161 -15 -171 -31 -26 -37 -7 -40 145 -3
149 -3 151 -44 257 -44 115 -49 143 -27 151 21 8 35 -14 61 -95 l23 -72 12 60
c7 32 18 74 26 92 14 34 41 43 51 16z m188 -242 c0 -154 4 -255 10 -261 6 -5
28 -11 50 -13 32 -2 40 -7 40 -23 0 -18 -7 -20 -75 -20 l-75 0 4 275 c2 168 7
280 14 288 28 35 32 2 32 -246z m294 249 c23 -15 5 -41 -29 -41 l-30 0 0 -230
0 -230 36 0 c31 0 35 -3 32 -22 -3 -22 -8 -23 -78 -23 -64 0 -75 3 -78 18 -3
12 4 20 17 24 21 5 21 11 21 234 l0 229 -29 0 c-34 0 -48 25 -23 39 21 13 142
14 161 2z m185 -1 c16 -6 26 -17 26 -30 0 -20 -12 -25 -61 -21 -25 2 -26 -1
-33 -60 -11 -106 -8 -129 13 -129 10 0 25 -7 32 -16 11 -14 10 -18 -6 -30 -10
-8 -27 -12 -37 -8 -17 5 -18 -4 -18 -129 0 -107 -3 -136 -14 -140 -8 -3 -20 0
-28 6 -11 10 -13 37 -7 147 4 74 7 194 8 266 1 86 5 134 13 142 14 14 77 16
112 2z m198 -16 c13 -8 10 -42 -4 -47 -7 -2 -25 0 -40 4 -26 7 -28 5 -28 -19
0 -15 -3 -51 -6 -79 l-7 -53 30 0 c40 0 59 -22 39 -43 -8 -8 -25 -13 -38 -10
-23 4 -23 4 -26 -126 l-3 -131 45 0 c49 0 65 -12 46 -35 -15 -18 -111 -20
-128 -3 -13 13 -18 524 -4 544 4 6 14 13 22 16 15 5 85 -8 102 -18z"/>
<path d="M5772 3485 c-111 -31 -140 -58 -152 -145 -5 -34 -16 -72 -24 -85
l-15 -23 46 14 c25 8 62 14 82 14 37 0 114 -30 125 -48 3 -5 -31 -29 -77 -52
-113 -59 -169 -92 -163 -97 2 -2 31 9 63 26 88 44 174 63 283 62 107 0 184
-17 279 -62 139 -64 48 -3 -119 81 l-64 32 27 24 c37 32 108 41 178 22 l57
-14 -15 22 c-8 12 -18 50 -23 84 -11 76 -32 102 -109 132 -73 28 -297 36 -379
13z"/>
<path d="M5802 3076 c-305 -74 -495 -396 -407 -690 41 -135 146 -263 271 -328
93 -49 169 -68 272 -68 164 0 285 51 403 169 115 115 159 222 159 384 0 304
-253 549 -565 546 -44 0 -104 -6 -133 -13z m251 -21 c103 -22 192 -70 267
-145 169 -169 207 -408 97 -613 -172 -324 -619 -385 -869 -118 -105 111 -148
217 -148 361 0 146 48 259 154 366 136 136 313 189 499 149z"/>
<path d="M5825 3033 c-11 -3 -44 -14 -72 -25 l-53 -19 15 -29 c12 -24 12 -29
1 -33 -8 -3 -21 5 -31 19 l-16 25 -46 -33 c-46 -34 -113 -107 -113 -125 0 -5
11 -15 25 -21 16 -7 23 -17 19 -27 -7 -18 -14 -18 -38 0 -29 22 -31 20 -54
-34 -50 -116 -50 -266 0 -382 23 -54 24 -55 52 -34 25 19 32 19 40 0 4 -10 -3
-20 -19 -27 -14 -6 -25 -16 -25 -21 0 -19 51 -78 103 -118 l51 -41 21 25 c28
35 50 25 30 -14 -15 -28 -15 -30 12 -40 63 -25 118 -39 157 -39 l41 1 -26 14
c-57 31 -40 123 27 151 50 21 82 8 34 -13 -34 -16 -34 -17 -10 -21 36 -6 60
-31 60 -62 0 -29 -16 -47 -59 -67 l-26 -12 30 4 c17 2 49 7 72 10 24 3 68 15
98 26 l56 21 -16 25 c-13 19 -14 28 -5 37 8 8 15 6 25 -8 8 -10 16 -24 18 -30
8 -23 167 124 167 154 0 4 -11 12 -25 18 -14 6 -25 15 -25 20 0 19 14 21 42 6
17 -9 32 -13 35 -11 2 3 15 36 28 73 33 92 34 227 4 317 -28 84 -34 90 -69 72
-26 -14 -40 -11 -40 7 0 5 11 14 25 20 14 6 25 15 25 20 0 26 -161 171 -167
152 -2 -6 -10 -20 -18 -30 -10 -14 -17 -16 -25 -8 -9 9 -8 18 5 37 l16 25 -56
21 c-66 25 -88 27 -57 5 27 -19 28 -48 2 -74 -13 -13 -15 -20 -7 -20 7 0 18 5
25 12 19 19 25 2 10 -29 -12 -26 -18 -28 -76 -31 l-62 -3 0 -144 c0 -88 4
-145 10 -145 16 0 23 -46 10 -69 -6 -12 -19 -21 -28 -21 -12 0 -18 -9 -20 -26
-2 -24 -72 -133 -128 -199 l-26 -30 7 35 c12 58 77 211 94 222 12 7 16 20 13
43 -3 23 1 36 15 46 16 12 18 30 19 152 l2 137 -69 0 c-39 0 -69 4 -69 10 0 6
8 10 18 10 14 0 16 8 14 50 -2 27 -8 50 -13 50 -5 0 -9 4 -9 9 0 11 109 35
118 26 4 -3 1 -9 -5 -13 -18 -11 -15 -122 3 -122 9 0 14 11 14 29 0 16 3 44 8
62 6 31 8 27 12 -30 l5 -63 28 25 c16 16 27 36 27 53 0 23 -3 25 -26 20 -41
-11 -27 26 16 41 32 11 26 12 -60 11 -52 0 -104 -3 -115 -5z m-275 -418 c36
-19 47 -55 29 -96 -13 -33 -61 -69 -91 -69 -27 0 -22 15 10 30 l27 13 -33 9
c-61 16 -67 95 -10 118 32 12 35 12 68 -5z m845 5 c23 -9 27 -15 23 -40 -3
-18 0 -31 9 -34 19 -8 16 -50 -5 -69 -26 -24 -72 -30 -107 -16 l-30 13 33 4
c36 4 45 33 15 52 -17 10 -17 10 0 20 28 17 22 43 -8 36 -14 -4 -25 -2 -25 3
0 12 21 28 45 34 11 2 21 5 22 6 1 0 14 -4 28 -9z"/>
<path d="M5501 2590 c1 -8 5 -26 9 -40 l8 -25 1 25 c0 14 -4 32 -9 40 -9 13
-10 13 -9 0z"/>
<path d="M5931 2125 c0 -11 4 -29 9 -40 8 -18 9 -18 9 5 0 14 -4 32 -9 40 -8
12 -10 12 -9 -5z"/>
<path d="M5043 1430 c3 -127 8 -234 11 -238 3 -3 17 5 31 18 73 68 54 398 -26
440 l-22 12 6 -232z"/>
<path d="M5327 1454 c-23 -146 -23 -144 14 -144 l32 0 -7 100 c-12 160 -19
169 -39 44z"/>
</g>
</svg>
