<?xml version="1.0" encoding="utf-8"?>
<!-- Generator: Adobe Illustrator 21.0.0, SVG Export Plug-In . SVG Version: 6.00 Build 0)  -->
<svg version="1.1" id="Layer_1" xmlns="http://www.w3.org/2000/svg" xmlns:xlink="http://www.w3.org/1999/xlink" x="0px" y="0px"
	 width="28px" height="80px" viewBox="0 0 28 80" style="enable-background:new 0 0 28 80;" xml:space="preserve">
<style type="text/css">
	.st0{fill:#E9232C;}
	.st1{fill:#FFFFFF;}
</style>
<path class="st0" d="M-1-5h26v30H-1V-5z"/>
<path class="st1" d="M25-5h3v30h-3V-5z"/>
</svg>
